<svg xmlns="http://www.w3.org/2000/svg" width="14.707" height="8.061" viewBox="0 0 14.707 8.061">
  <defs>
    <style>
      .cls-1 {
        fill: #fff;
        stroke: #929b00;
        stroke-miterlimit: 10;
      }
    </style>
  </defs>
  <title>Asset 2</title>
  <g id="Layer_2" data-name="Layer 2">
    <g id="レイヤー_1" data-name="レイヤー 1">
      <polyline class="cls-1" points="14.354 0.354 7.354 7.354 0.354 0.354"/>
    </g>
  </g>
</svg>
