<svg xmlns="http://www.w3.org/2000/svg" xmlns:xlink="http://www.w3.org/1999/xlink" width="36.415" height="46.231" viewBox="0 0 36.415 46.231">
  <defs>
    <style>
      .cls-1, .cls-10, .cls-5, .cls-6 {
        fill: none;
        stroke: #a2ad27;
        stroke-miterlimit: 10;
        stroke-width: 0.494px;
      }

      .cls-2 {
        opacity: 0.74;
      }

      .cls-3 {
        clip-path: url(#clip-path);
      }

      .cls-4 {
        opacity: 0.92;
      }

      .cls-5 {
        opacity: 0.46;
      }

      .cls-6 {
        opacity: 0.65;
      }

      .cls-7 {
        clip-path: url(#clip-path-2);
      }

      .cls-8 {
        opacity: 0.8;
      }

      .cls-9 {
        clip-path: url(#clip-path-3);
      }

      .cls-10 {
        opacity: 0.5;
      }

      .cls-11 {
        clip-path: url(#clip-path-4);
      }

      .cls-12 {
        clip-path: url(#clip-path-5);
      }
    </style>
    <clipPath id="clip-path" transform="translate(2.033 0.58)">
      <path class="cls-1" d="M13.333,11.621C13.439,5.616,18.393,2.212,23.527.3c2.653,4.392,3.353,10.929.8,14.812-1.709,2.6-6.382,4.126-7.261,3.749C16.246,18.512,13.286,14.248,13.333,11.621Z"/>
    </clipPath>
    <clipPath id="clip-path-2" transform="translate(2.033 0.58)">
      <path class="cls-1" d="M18.1,22.678c3.994-4.131,9.338-4.692,14.143-2.6-1.084,4.788-4.128,8.686-8.545,10.2-2.505.86-9.231-.164-9.587-.953C13.743,28.5,15.637,25.23,18.1,22.678Z"/>
    </clipPath>
    <clipPath id="clip-path-3" transform="translate(2.033 0.58)">
      <path class="cls-1" d="M4.132,26.124C-.5,22.72-.275,16.9,1.152,11.858c4.89.433,10.415,3.556,11.888,7.751.878,2.5.276,8.857-.458,9.315C11.816,29.4,6.991,28.226,4.132,26.124Z"/>
    </clipPath>
    <clipPath id="clip-path-4" transform="translate(2.033 0.58)">
      <path class="cls-1" d="M2.775,36.4C.208,32.379,2.12,27.939,4.732,24.461c3.658,1.8,7,5.867,6.89,9.557-.067,2.2-2.555,5.558-3.26,5.694C7.625,39.854,4.361,38.883,2.775,36.4Z"/>
    </clipPath>
    <clipPath id="clip-path-5" transform="translate(2.033 0.58)">
      <path class="cls-1" d="M13.58,34.683c3.314-3.432,8.077-2.6,12.068-.871-.9,3.976-4.081,8.175-7.695,8.922-2.153.445-6-1.194-6.3-1.848C11.347,40.2,11.534,36.8,13.58,34.683Z"/>
    </clipPath>
  </defs>
  <title>Asset 2</title>
  <g id="Layer_2" data-name="Layer 2">
    <g id="レイヤー_1" data-name="レイヤー 1">
      <g class="cls-2">
        <g>
          <g class="cls-3">
            <g class="cls-4">
              <g>
                <path class="cls-5" d="M24.187,1.689a1.28,1.28,0,0,1,.342-.327c.164-.076.346-.124.509-.2a1.7,1.7,0,0,1,.448-.211c.158-.023.109.029.219.037a1.833,1.833,0,0,0,.269-.016A3.185,3.185,0,0,1,26.735.95c.231.044.459.36.627.515a1.149,1.149,0,0,1,.391.483,3.54,3.54,0,0,1,.035.681c.01.075.054.128.061.2s-.047.141-.058.229a1.626,1.626,0,0,0,.082.508,2.833,2.833,0,0,0,.276.616c.066.115.187.181.207.326.018.127.006.085-.05.179a.685.685,0,0,0-.113.249c-.045.164-.08.331-.142.5a1.714,1.714,0,0,1-.395.474l-.39.422a2.138,2.138,0,0,1-.81.59c-.138.059-.274.126-.41.189a1.652,1.652,0,0,1-.646.125c-.09.007-.178.032-.268.04-.162.013-.328-.032-.488,0-.19.034-.35.166-.539.207a1.72,1.72,0,0,1-.559.009,1.39,1.39,0,0,1-.653-.168,3.8,3.8,0,0,0-.327-.243c-.091-.047-.183-.031-.273-.072a1.815,1.815,0,0,1-.37-.323,1.619,1.619,0,0,1-.467-1.053.966.966,0,0,1,.069-.484c.087-.221.126-.487.232-.7a5.474,5.474,0,0,1,.338-.57,2.356,2.356,0,0,1,.193-.227c.1-.117.149-.255.242-.374.265-.336.6-.639.887-.954C23.629,2.085,23.818,1.769,24.187,1.689Z" transform="translate(2.033 0.58)"/>
                <path class="cls-1" d="M25.5,3.169a1.265,1.265,0,0,1,.342-.327c.164-.076.346-.124.509-.2a1.64,1.64,0,0,1,.448-.211c.158-.024.109.028.219.036a1.7,1.7,0,0,0,.269-.015,3.185,3.185,0,0,1,.761-.018c.23.044.459.36.626.514a1.145,1.145,0,0,1,.391.484,3.457,3.457,0,0,1,.036.681c.01.075.054.127.061.2s-.047.14-.058.229a1.615,1.615,0,0,0,.082.507,2.791,2.791,0,0,0,.276.616c.066.116.186.182.207.326.018.128.006.086-.05.18a.685.685,0,0,0-.113.249c-.045.164-.08.331-.142.5a1.728,1.728,0,0,1-.395.474l-.39.422a2.148,2.148,0,0,1-.81.59c-.138.059-.274.126-.41.189a1.659,1.659,0,0,1-.646.125c-.09.007-.178.032-.268.04-.162.013-.328-.032-.488,0-.19.033-.35.165-.54.207a1.741,1.741,0,0,1-.558.009,1.4,1.4,0,0,1-.653-.168,3.968,3.968,0,0,0-.327-.243c-.092-.048-.183-.031-.274-.073a1.8,1.8,0,0,1-.369-.322,1.614,1.614,0,0,1-.467-1.053.955.955,0,0,1,.069-.484c.087-.221.126-.487.232-.7a5.474,5.474,0,0,1,.338-.57,2.222,2.222,0,0,1,.193-.227c.1-.117.149-.255.242-.374.265-.336.6-.639.887-.954C24.941,3.565,25.13,3.249,25.5,3.169Z" transform="translate(2.033 0.58)"/>
                <path class="cls-5" d="M25.763,7.336a1.283,1.283,0,0,1,.343-.327c.164-.076.345-.124.509-.2a1.634,1.634,0,0,1,.447-.211c.159-.024.109.028.219.036a1.691,1.691,0,0,0,.269-.015,3.186,3.186,0,0,1,.761-.018c.231.044.46.36.627.514a1.158,1.158,0,0,1,.391.484,3.539,3.539,0,0,1,.036.681c.01.075.054.127.061.2s-.048.14-.058.229a1.615,1.615,0,0,0,.082.507,2.787,2.787,0,0,0,.275.616c.067.116.187.182.208.326.018.128.006.086-.051.18a.7.7,0,0,0-.112.249c-.046.164-.081.331-.142.5a1.715,1.715,0,0,1-.4.474c-.129.141-.259.281-.389.422a2.152,2.152,0,0,1-.811.59c-.137.059-.274.126-.409.189a1.661,1.661,0,0,1-.647.125c-.09.007-.178.032-.267.04-.162.013-.328-.032-.488,0-.19.033-.351.165-.54.207a1.742,1.742,0,0,1-.558.009,1.4,1.4,0,0,1-.653-.168,3.968,3.968,0,0,0-.327-.243c-.092-.048-.183-.031-.274-.073a1.749,1.749,0,0,1-.369-.322,1.62,1.62,0,0,1-.468-1.053.955.955,0,0,1,.07-.484c.087-.221.125-.487.232-.7a5.3,5.3,0,0,1,.338-.57,2.222,2.222,0,0,1,.193-.227c.1-.117.149-.255.242-.374.265-.336.6-.639.887-.954C25.206,7.732,25.4,7.416,25.763,7.336Z" transform="translate(2.033 0.58)"/>
                <path class="cls-5" d="M21.18,5.876a1.269,1.269,0,0,1,.343-.327c.163-.075.345-.124.508-.2a1.667,1.667,0,0,1,.448-.21c.158-.024.109.028.219.036a1.825,1.825,0,0,0,.269-.015,3.134,3.134,0,0,1,.761-.018c.231.043.46.36.627.514a1.155,1.155,0,0,1,.391.483,3.547,3.547,0,0,1,.035.682c.011.075.054.127.061.2s-.047.14-.058.228a1.626,1.626,0,0,0,.082.508,2.791,2.791,0,0,0,.276.616c.066.116.187.181.207.326.018.127.006.086-.05.179a.7.7,0,0,0-.113.249c-.045.164-.08.332-.142.5a1.718,1.718,0,0,1-.395.475l-.39.421a2.127,2.127,0,0,1-.81.59c-.138.059-.274.127-.41.19a1.651,1.651,0,0,1-.646.124c-.09.008-.178.033-.268.04-.162.014-.327-.031-.488,0-.19.033-.35.165-.539.206a1.692,1.692,0,0,1-.559.009,1.378,1.378,0,0,1-.653-.168,3.651,3.651,0,0,0-.327-.242c-.091-.048-.183-.031-.273-.073a1.785,1.785,0,0,1-.37-.323,1.614,1.614,0,0,1-.467-1.053.963.963,0,0,1,.069-.483c.087-.222.126-.487.232-.7a5.372,5.372,0,0,1,.338-.57,2.127,2.127,0,0,1,.194-.227c.1-.117.148-.255.242-.374.264-.337.595-.64.886-.954C20.623,6.272,20.811,5.956,21.18,5.876Z" transform="translate(2.033 0.58)"/>
                <path class="cls-1" d="M20.2,8.909a1.269,1.269,0,0,1,.343-.327c.163-.075.345-.124.509-.2a1.661,1.661,0,0,1,.447-.21c.159-.024.109.028.219.036a1.825,1.825,0,0,0,.269-.015,3.135,3.135,0,0,1,.761-.018c.231.043.46.359.627.514a1.155,1.155,0,0,1,.391.483,3.54,3.54,0,0,1,.035.681c.011.076.054.128.061.2s-.047.14-.057.228a1.625,1.625,0,0,0,.081.508,2.838,2.838,0,0,0,.276.616c.066.116.187.181.207.326.019.127.007.086-.05.179a.7.7,0,0,0-.112.249c-.046.164-.081.332-.143.5a1.718,1.718,0,0,1-.395.475l-.389.421a2.138,2.138,0,0,1-.811.59c-.137.059-.274.127-.409.19a1.66,1.66,0,0,1-.647.124c-.09.008-.178.033-.268.04-.161.014-.327-.031-.487,0-.191.033-.351.165-.54.206a1.692,1.692,0,0,1-.559.009,1.381,1.381,0,0,1-.653-.168,3.78,3.78,0,0,0-.326-.242c-.092-.048-.184-.031-.274-.073a1.785,1.785,0,0,1-.37-.323,1.617,1.617,0,0,1-.467-1.053.953.953,0,0,1,.07-.483c.087-.222.125-.487.231-.7a5.488,5.488,0,0,1,.338-.571,2.219,2.219,0,0,1,.194-.226c.1-.117.148-.255.242-.374.264-.337.6-.64.886-.955C19.639,9.305,19.828,8.989,20.2,8.909Z" transform="translate(2.033 0.58)"/>
                <path class="cls-1" d="M20.461,13.076a1.269,1.269,0,0,1,.343-.327c.163-.075.345-.124.508-.2a1.667,1.667,0,0,1,.448-.21c.158-.024.109.028.219.036a1.825,1.825,0,0,0,.269-.015,3.134,3.134,0,0,1,.761-.018c.231.043.46.359.627.514a1.155,1.155,0,0,1,.391.483,3.54,3.54,0,0,1,.035.681c.011.076.054.128.061.2s-.047.14-.058.228a1.626,1.626,0,0,0,.082.508,2.791,2.791,0,0,0,.276.616c.066.116.187.181.207.326.018.127.006.086-.05.179a.7.7,0,0,0-.113.249c-.045.164-.08.332-.142.5a1.718,1.718,0,0,1-.395.475l-.39.421a2.127,2.127,0,0,1-.81.59c-.138.059-.274.127-.41.19a1.651,1.651,0,0,1-.646.124c-.09.008-.178.033-.268.04-.162.014-.327-.031-.488,0-.19.033-.35.165-.539.206a1.692,1.692,0,0,1-.559.009,1.378,1.378,0,0,1-.653-.168,3.651,3.651,0,0,0-.327-.242c-.091-.048-.183-.031-.273-.073a1.785,1.785,0,0,1-.37-.323,1.617,1.617,0,0,1-.467-1.053.963.963,0,0,1,.069-.483c.087-.222.126-.487.232-.7a5.488,5.488,0,0,1,.338-.571,2.219,2.219,0,0,1,.194-.226c.1-.117.148-.255.242-.374.264-.337.595-.64.886-.955C19.9,13.472,20.092,13.156,20.461,13.076Z" transform="translate(2.033 0.58)"/>
                <path class="cls-5" d="M15.877,11.617a1.3,1.3,0,0,1,.343-.327c.164-.076.345-.124.509-.2a1.694,1.694,0,0,1,.447-.211c.159-.023.109.029.219.037a1.825,1.825,0,0,0,.269-.016,3.186,3.186,0,0,1,.761-.018c.231.044.46.36.627.514a1.158,1.158,0,0,1,.391.484,3.539,3.539,0,0,1,.036.681c.01.075.053.127.061.2s-.048.141-.058.229a1.587,1.587,0,0,0,.082.507,2.816,2.816,0,0,0,.275.617c.067.115.187.181.208.326.018.127.006.085-.051.179a.7.7,0,0,0-.112.249c-.046.164-.081.331-.143.5a1.714,1.714,0,0,1-.395.474c-.13.141-.259.282-.389.422a2.149,2.149,0,0,1-.811.59c-.137.059-.274.126-.409.189a1.661,1.661,0,0,1-.647.125c-.09.007-.178.032-.268.04-.161.013-.327-.032-.487,0-.19.034-.351.166-.54.207a1.719,1.719,0,0,1-.559.009,1.4,1.4,0,0,1-.652-.168A3.968,3.968,0,0,0,14.257,17c-.092-.048-.183-.031-.274-.073a1.749,1.749,0,0,1-.369-.322,1.62,1.62,0,0,1-.468-1.053.955.955,0,0,1,.07-.484c.087-.221.125-.487.232-.7a5.465,5.465,0,0,1,.337-.57,2.231,2.231,0,0,1,.194-.227c.1-.117.149-.255.242-.374.264-.336.6-.639.886-.954C15.32,12.013,15.509,11.7,15.877,11.617Z" transform="translate(2.033 0.58)"/>
                <path class="cls-1" d="M15.732,15.39a1.254,1.254,0,0,1-.343.327c-.163.076-.345.124-.508.2a1.64,1.64,0,0,1-.448.211c-.159.024-.109-.028-.219-.036a1.7,1.7,0,0,0-.269.015,3.185,3.185,0,0,1-.761.018c-.231-.044-.46-.36-.627-.514a1.152,1.152,0,0,1-.391-.484,3.536,3.536,0,0,1-.035-.681c-.011-.075-.054-.127-.061-.2s.047-.14.057-.229a1.586,1.586,0,0,0-.081-.507,2.838,2.838,0,0,0-.276-.616c-.066-.116-.187-.182-.207-.326-.018-.128-.007-.086.05-.18a.667.667,0,0,0,.112-.249c.046-.164.081-.331.143-.5a1.718,1.718,0,0,1,.395-.475c.13-.141.26-.281.389-.422a2.159,2.159,0,0,1,.811-.59c.138-.059.274-.126.409-.189a1.661,1.661,0,0,1,.647-.125c.09-.007.178-.032.268-.04.162-.013.327.032.487,0,.191-.033.351-.165.54-.207a1.747,1.747,0,0,1,.559-.009,1.405,1.405,0,0,1,.653.168,3.785,3.785,0,0,0,.326.243c.092.048.184.031.274.073A1.78,1.78,0,0,1,18,10.4a1.619,1.619,0,0,1,.467,1.053.955.955,0,0,1-.07.484c-.087.221-.125.487-.231.7a5.474,5.474,0,0,1-.338.57,2.231,2.231,0,0,1-.194.227c-.1.117-.148.255-.242.374-.264.336-.6.639-.886.954C16.289,14.994,16.1,15.31,15.732,15.39Z" transform="translate(2.033 0.58)"/>
                <path class="cls-1" d="M15.467,11.223a1.265,1.265,0,0,1-.342.327c-.164.076-.346.124-.509.2a1.64,1.64,0,0,1-.448.211c-.158.024-.109-.028-.219-.036a1.7,1.7,0,0,0-.269.015,3.185,3.185,0,0,1-.761.018c-.231-.044-.459-.36-.627-.514a1.152,1.152,0,0,1-.391-.484,3.536,3.536,0,0,1-.035-.681c-.01-.075-.054-.127-.061-.2s.047-.14.058-.229a1.615,1.615,0,0,0-.082-.507,2.791,2.791,0,0,0-.276-.616c-.066-.116-.187-.182-.207-.326-.018-.128-.006-.086.05-.18a.685.685,0,0,0,.113-.249c.045-.164.08-.331.142-.5A1.728,1.728,0,0,1,12,7l.39-.422a2.148,2.148,0,0,1,.81-.59c.138-.059.274-.126.41-.189a1.652,1.652,0,0,1,.646-.125c.09-.007.178-.032.268-.04.162-.013.328.032.488,0,.19-.033.35-.165.539-.207a1.748,1.748,0,0,1,.559-.009,1.4,1.4,0,0,1,.653.168,3.655,3.655,0,0,0,.327.243c.091.048.183.031.273.073a1.78,1.78,0,0,1,.37.322A1.619,1.619,0,0,1,18.2,7.285a.966.966,0,0,1-.069.484c-.087.221-.126.487-.232.7a5.474,5.474,0,0,1-.338.57,2.356,2.356,0,0,1-.193.227c-.1.117-.149.255-.243.374-.264.336-.6.639-.886.954C16.025,10.827,15.836,11.143,15.467,11.223Z" transform="translate(2.033 0.58)"/>
                <path class="cls-5" d="M20.051,12.683a1.3,1.3,0,0,1-.343.327c-.164.075-.345.124-.509.2a1.661,1.661,0,0,1-.447.21c-.159.024-.109-.028-.219-.036a1.818,1.818,0,0,0-.269.015,3.135,3.135,0,0,1-.761.018c-.231-.043-.46-.359-.627-.514a1.155,1.155,0,0,1-.391-.483,3.545,3.545,0,0,1-.036-.682c-.01-.075-.053-.127-.061-.2s.048-.14.058-.228a1.625,1.625,0,0,0-.081-.508,2.838,2.838,0,0,0-.276-.616c-.066-.116-.187-.181-.208-.326-.018-.127-.006-.086.051-.179a.717.717,0,0,0,.112-.249c.046-.164.081-.332.143-.5a1.718,1.718,0,0,1,.395-.475l.389-.421a2.138,2.138,0,0,1,.811-.59c.137-.059.274-.127.409-.19a1.66,1.66,0,0,1,.647-.124c.09-.008.178-.033.268-.04.161-.014.327.031.487,0,.191-.033.351-.165.54-.206a1.692,1.692,0,0,1,.559-.009,1.374,1.374,0,0,1,.652.168,3.963,3.963,0,0,0,.327.242c.092.048.183.031.274.073a1.755,1.755,0,0,1,.369.323,1.618,1.618,0,0,1,.468,1.053.953.953,0,0,1-.07.483c-.087.222-.125.487-.231.7a5.67,5.67,0,0,1-.338.571,2.219,2.219,0,0,1-.194.226c-.1.117-.148.255-.242.374-.264.337-.6.64-.886.955C20.608,12.287,20.419,12.6,20.051,12.683Z" transform="translate(2.033 0.58)"/>
                <path class="cls-5" d="M21.035,9.65a1.3,1.3,0,0,1-.343.327c-.164.075-.345.124-.509.2a1.661,1.661,0,0,1-.447.21c-.159.024-.109-.028-.219-.036a1.818,1.818,0,0,0-.269.015,3.135,3.135,0,0,1-.761.018c-.231-.043-.46-.359-.627-.514a1.155,1.155,0,0,1-.391-.483,3.539,3.539,0,0,1-.036-.681c-.01-.076-.054-.128-.061-.2s.048-.14.058-.228a1.626,1.626,0,0,0-.082-.508,2.856,2.856,0,0,0-.275-.616c-.067-.116-.187-.181-.208-.326-.018-.127-.006-.086.051-.179a.717.717,0,0,0,.112-.249c.046-.164.08-.332.142-.5a1.7,1.7,0,0,1,.4-.475l.389-.421a2.13,2.13,0,0,1,.811-.59c.137-.059.273-.127.409-.19a1.66,1.66,0,0,1,.647-.124c.089-.008.178-.033.267-.04.162-.014.328.031.488,0,.19-.033.351-.165.54-.206a1.686,1.686,0,0,1,.558-.009,1.375,1.375,0,0,1,.653.168,3.747,3.747,0,0,0,.327.242c.092.048.183.031.274.073a1.784,1.784,0,0,1,.369.323,1.618,1.618,0,0,1,.468,1.053.953.953,0,0,1-.07.483c-.087.222-.125.487-.232.7a5.318,5.318,0,0,1-.338.571,2.335,2.335,0,0,1-.193.227c-.1.116-.149.254-.242.373-.265.337-.6.64-.887.955C21.592,9.254,21.4,9.57,21.035,9.65Z" transform="translate(2.033 0.58)"/>
                <path class="cls-5" d="M20.77,5.483a1.284,1.284,0,0,1-.343.327c-.163.075-.345.124-.509.2a1.661,1.661,0,0,1-.447.21c-.159.024-.109-.028-.219-.036a1.818,1.818,0,0,0-.269.015,3.135,3.135,0,0,1-.761.018c-.231-.043-.46-.359-.627-.514a1.155,1.155,0,0,1-.391-.483,3.539,3.539,0,0,1-.036-.681c-.01-.076-.053-.128-.061-.2s.048-.14.058-.228a1.625,1.625,0,0,0-.081-.508,2.838,2.838,0,0,0-.276-.616c-.066-.116-.187-.181-.208-.326-.018-.127-.006-.086.051-.179a.717.717,0,0,0,.112-.249c.046-.164.081-.332.143-.5a1.718,1.718,0,0,1,.395-.475L17.69.842A2.138,2.138,0,0,1,18.5.252c.137-.059.274-.127.409-.19a1.66,1.66,0,0,1,.647-.124c.09-.008.178-.033.268-.04.161-.014.327.031.487,0,.191-.033.351-.165.54-.206a1.692,1.692,0,0,1,.559-.009,1.374,1.374,0,0,1,.652.168A3.963,3.963,0,0,0,22.39.1c.092.048.183.031.274.073a1.755,1.755,0,0,1,.369.323A1.618,1.618,0,0,1,23.5,1.545a.953.953,0,0,1-.07.483c-.087.222-.125.487-.231.7a5.67,5.67,0,0,1-.338.571,2.219,2.219,0,0,1-.194.226c-.1.117-.148.255-.242.374-.264.337-.595.64-.886.955C21.327,5.087,21.138,5.4,20.77,5.483Z" transform="translate(2.033 0.58)"/>
                <path class="cls-1" d="M25.353,6.942a1.28,1.28,0,0,1-.342.327c-.164.076-.346.124-.509.2a1.64,1.64,0,0,1-.448.211c-.158.024-.109-.029-.219-.037a1.841,1.841,0,0,0-.269.016,3.185,3.185,0,0,1-.761.018c-.231-.044-.459-.36-.626-.514a1.161,1.161,0,0,1-.392-.484A3.54,3.54,0,0,1,21.752,6c-.01-.075-.054-.127-.061-.2s.047-.141.058-.229a1.615,1.615,0,0,0-.082-.507,2.791,2.791,0,0,0-.276-.616c-.066-.116-.186-.182-.207-.327-.018-.127-.006-.085.05-.179a.685.685,0,0,0,.113-.249c.045-.164.08-.331.142-.5a1.728,1.728,0,0,1,.395-.474l.39-.422a2.138,2.138,0,0,1,.81-.59c.138-.059.274-.126.41-.189A1.659,1.659,0,0,1,24.14,1.4c.09-.007.178-.032.268-.04.162-.013.328.032.488,0,.19-.034.35-.165.54-.207a1.713,1.713,0,0,1,.558-.009,1.4,1.4,0,0,1,.653.168,3.968,3.968,0,0,0,.327.243c.092.048.183.031.274.073a1.8,1.8,0,0,1,.369.322A1.614,1.614,0,0,1,28.084,3a.955.955,0,0,1-.069.484c-.087.221-.126.487-.232.7a5.474,5.474,0,0,1-.338.57,2.222,2.222,0,0,1-.193.227c-.1.117-.149.255-.242.374-.265.336-.6.639-.887.954C25.911,6.546,25.722,6.862,25.353,6.942Z" transform="translate(2.033 0.58)"/>
                <path class="cls-6" d="M13.333,11.621C13.439,5.616,18.393,2.212,23.527.3c2.653,4.392,3.353,10.929.8,14.812-1.709,2.6-6.382,4.126-7.261,3.749C16.246,18.512,13.286,14.248,13.333,11.621Z" transform="translate(2.033 0.58)"/>
              </g>
            </g>
          </g>
          <path class="cls-1" d="M13.333,11.621C13.439,5.616,18.393,2.212,23.527.3c2.653,4.392,3.353,10.929.8,14.812-1.709,2.6-6.382,4.126-7.261,3.749C16.246,18.512,13.286,14.248,13.333,11.621Z" transform="translate(2.033 0.58)"/>
        </g>
        <g>
          <g class="cls-7">
            <path class="cls-6" d="M18.1,22.678c3.994-4.131,9.338-4.692,14.143-2.6-1.084,4.788-4.128,8.686-8.545,10.2-2.505.86-9.231-.164-9.587-.953C13.743,28.5,15.637,25.23,18.1,22.678Z" transform="translate(2.033 0.58)"/>
            <g class="cls-8">
              <g>
                <path class="cls-5" d="M31.783,21.468a1.231,1.231,0,0,1,.453,0c.163.057.32.144.486.2a1.592,1.592,0,0,1,.448.152c.125.089.057.092.127.17a1.679,1.679,0,0,0,.2.168,3,3,0,0,1,.536.493c.131.183.079.553.092.77a1.1,1.1,0,0,1-.052.593c-.1.2-.289.3-.427.493-.043.059-.047.123-.091.178s-.126.066-.191.12a1.538,1.538,0,0,0-.281.4,2.715,2.715,0,0,0-.218.607c-.031.124.008.249-.074.363s-.052.063-.153.09a.66.66,0,0,0-.243.1c-.14.083-.275.175-.428.249a1.646,1.646,0,0,1-.588.065l-.548.032a2.041,2.041,0,0,1-.95-.131c-.134-.05-.273-.094-.408-.141a1.567,1.567,0,0,1-.528-.343c-.067-.054-.145-.095-.212-.15-.12-.1-.2-.239-.333-.326-.154-.1-.352-.118-.51-.215a1.675,1.675,0,0,1-.391-.365,1.33,1.33,0,0,1-.338-.549,3.585,3.585,0,0,0-.065-.384c-.031-.094-.106-.143-.14-.232a1.716,1.716,0,0,1-.041-.467,1.551,1.551,0,0,1,.376-1.036.911.911,0,0,1,.369-.287c.207-.1.41-.253.626-.331a5.077,5.077,0,0,1,.612-.169,2.1,2.1,0,0,1,.284-.028c.147-.014.271-.078.414-.1.406-.056.835-.045,1.245-.069A1.5,1.5,0,0,1,31.783,21.468Z" transform="translate(2.033 0.58)"/>
                <path class="cls-1" d="M29.016,24.473a1.231,1.231,0,0,1,.453,0c.163.056.321.143.486.2a1.59,1.59,0,0,1,.448.151c.126.089.057.092.127.171a1.781,1.781,0,0,0,.2.168,3.034,3.034,0,0,1,.537.492c.13.183.078.553.091.771a1.107,1.107,0,0,1-.051.592c-.1.206-.29.3-.428.493-.043.059-.047.124-.091.179s-.125.065-.191.119a1.535,1.535,0,0,0-.28.4,2.694,2.694,0,0,0-.219.608c-.031.124.008.249-.073.362s-.053.063-.154.091a.666.666,0,0,0-.243.1c-.14.083-.275.175-.428.248a1.646,1.646,0,0,1-.588.066l-.548.032a2.054,2.054,0,0,1-.95-.131c-.134-.051-.273-.1-.408-.141a1.6,1.6,0,0,1-.528-.343c-.067-.055-.145-.1-.211-.15-.121-.1-.205-.239-.334-.326-.154-.1-.352-.119-.509-.216a1.656,1.656,0,0,1-.392-.364,1.336,1.336,0,0,1-.338-.549,3.543,3.543,0,0,0-.065-.384c-.031-.094-.105-.143-.14-.232a1.716,1.716,0,0,1-.041-.467,1.549,1.549,0,0,1,.377-1.037.917.917,0,0,1,.368-.287c.207-.095.41-.252.626-.331a5.323,5.323,0,0,1,.612-.169,2.1,2.1,0,0,1,.284-.028c.147-.013.271-.077.415-.1.405-.057.834-.046,1.244-.07A1.5,1.5,0,0,1,29.016,24.473Z" transform="translate(2.033 0.58)"/>
                <path class="cls-5" d="M18.052,26.235a1.21,1.21,0,0,1,.453,0c.163.056.32.143.486.2a1.559,1.559,0,0,1,.448.151c.126.089.057.092.127.17a1.588,1.588,0,0,0,.2.168,3.078,3.078,0,0,1,.537.493c.13.183.078.553.091.77a1.11,1.11,0,0,1-.051.593c-.1.206-.29.3-.428.493-.043.059-.047.124-.091.179s-.125.065-.191.119a1.562,1.562,0,0,0-.281.4,2.7,2.7,0,0,0-.218.608c-.031.123.008.249-.073.362s-.053.063-.154.09a.677.677,0,0,0-.243.1c-.14.083-.275.175-.428.249a1.646,1.646,0,0,1-.588.065l-.548.033a2.054,2.054,0,0,1-.95-.131c-.134-.051-.273-.1-.408-.141a1.6,1.6,0,0,1-.528-.343c-.067-.055-.145-.1-.212-.151-.12-.1-.2-.239-.333-.326-.154-.1-.352-.118-.509-.215a1.656,1.656,0,0,1-.392-.364,1.336,1.336,0,0,1-.338-.549,3.6,3.6,0,0,0-.065-.385c-.031-.093-.105-.142-.14-.231a1.723,1.723,0,0,1-.041-.468,1.548,1.548,0,0,1,.377-1.036.908.908,0,0,1,.368-.287c.207-.095.41-.253.626-.331a5.128,5.128,0,0,1,.612-.169,2.1,2.1,0,0,1,.284-.028c.147-.014.271-.077.415-.1.4-.057.834-.046,1.244-.07A1.5,1.5,0,0,1,18.052,26.235Z" transform="translate(2.033 0.58)"/>
                <path class="cls-5" d="M26.932,22.361a1.21,1.21,0,0,1,.453,0c.163.056.32.143.486.2a1.559,1.559,0,0,1,.448.151c.125.089.057.092.127.17a1.679,1.679,0,0,0,.2.168,3.036,3.036,0,0,1,.536.493c.131.183.079.553.092.77a1.1,1.1,0,0,1-.052.593c-.1.206-.289.3-.427.493-.043.059-.047.124-.091.179s-.126.065-.191.119a1.538,1.538,0,0,0-.281.4,2.7,2.7,0,0,0-.218.608c-.031.124.008.249-.074.362s-.052.063-.153.09a.677.677,0,0,0-.243.1c-.14.083-.275.175-.428.249a1.649,1.649,0,0,1-.588.065l-.548.033a2.054,2.054,0,0,1-.95-.131c-.134-.051-.273-.095-.408-.141a1.613,1.613,0,0,1-.529-.343c-.066-.055-.144-.1-.211-.151-.12-.1-.2-.239-.333-.326-.154-.1-.352-.118-.51-.215a1.67,1.67,0,0,1-.391-.364,1.326,1.326,0,0,1-.338-.549A3.6,3.6,0,0,0,22.241,25c-.031-.093-.106-.142-.14-.231a1.723,1.723,0,0,1-.041-.468,1.553,1.553,0,0,1,.376-1.036.911.911,0,0,1,.369-.287c.207-.095.41-.253.626-.331a5.077,5.077,0,0,1,.612-.169,2.1,2.1,0,0,1,.284-.028c.147-.014.271-.077.414-.1.406-.057.835-.046,1.245-.07A1.5,1.5,0,0,1,26.932,22.361Z" transform="translate(2.033 0.58)"/>
                <path class="cls-1" d="M24.241,23.8a1.237,1.237,0,0,1,.454,0c.163.056.32.144.486.2a1.571,1.571,0,0,1,.448.152c.125.089.056.092.127.17a1.863,1.863,0,0,0,.2.168,3,3,0,0,1,.537.492c.13.184.078.553.091.771a1.1,1.1,0,0,1-.051.592c-.1.206-.289.3-.427.494-.043.058-.048.123-.091.178s-.126.065-.192.119a1.564,1.564,0,0,0-.28.405,2.768,2.768,0,0,0-.219.607c-.031.124.009.249-.073.363-.072.1-.052.063-.153.09a.653.653,0,0,0-.243.1c-.14.083-.276.175-.429.249a1.64,1.64,0,0,1-.587.065l-.548.032a2.052,2.052,0,0,1-.95-.131c-.134-.051-.273-.1-.408-.141a1.587,1.587,0,0,1-.529-.343c-.067-.055-.144-.1-.211-.15-.12-.1-.2-.239-.334-.326-.153-.1-.351-.119-.509-.216a1.612,1.612,0,0,1-.391-.364,1.339,1.339,0,0,1-.339-.549,3.533,3.533,0,0,0-.064-.384c-.032-.094-.106-.143-.14-.232a1.64,1.64,0,0,1-.041-.467,1.544,1.544,0,0,1,.376-1.036.914.914,0,0,1,.369-.288c.207-.095.409-.252.626-.331a5.517,5.517,0,0,1,.611-.169,2.294,2.294,0,0,1,.284-.028c.147-.013.272-.077.415-.1.406-.056.835-.046,1.244-.07A1.505,1.505,0,0,1,24.241,23.8Z" transform="translate(2.033 0.58)"/>
                <path class="cls-1" d="M21.66,26.848a1.21,1.21,0,0,1,.453,0c.163.056.32.143.486.2a1.569,1.569,0,0,1,.448.151c.125.089.057.092.127.17a1.588,1.588,0,0,0,.2.168,3.036,3.036,0,0,1,.536.493c.131.183.079.553.091.77a1.1,1.1,0,0,1-.051.593c-.1.206-.289.3-.427.493-.043.059-.048.124-.091.179s-.126.065-.191.119a1.538,1.538,0,0,0-.281.4,2.7,2.7,0,0,0-.218.608c-.031.124.008.249-.074.362s-.052.063-.153.09a.677.677,0,0,0-.243.1c-.14.083-.275.176-.428.249a1.649,1.649,0,0,1-.588.065l-.548.033a2.052,2.052,0,0,1-.95-.131c-.134-.051-.273-.1-.408-.141a1.613,1.613,0,0,1-.529-.343c-.066-.055-.144-.1-.211-.151-.12-.1-.205-.239-.333-.326-.154-.1-.352-.118-.51-.215a1.67,1.67,0,0,1-.391-.364,1.339,1.339,0,0,1-.339-.549,3.59,3.59,0,0,0-.064-.385c-.031-.093-.106-.142-.14-.231a1.723,1.723,0,0,1-.041-.468,1.553,1.553,0,0,1,.376-1.036.911.911,0,0,1,.369-.287c.207-.095.41-.253.626-.331a5.112,5.112,0,0,1,.611-.169,2.117,2.117,0,0,1,.284-.028c.147-.014.272-.077.415-.1.406-.057.835-.046,1.244-.07A1.5,1.5,0,0,1,21.66,26.848Z" transform="translate(2.033 0.58)"/>
                <path class="cls-5" d="M19.468,22.8a1.232,1.232,0,0,1,.453,0c.163.056.32.143.486.2a1.6,1.6,0,0,1,.448.151c.125.089.057.092.127.171a1.781,1.781,0,0,0,.2.168,2.994,2.994,0,0,1,.536.492c.131.183.079.553.091.77a1.1,1.1,0,0,1-.051.593c-.1.206-.289.3-.427.493-.043.059-.048.124-.091.179s-.126.065-.191.119a1.538,1.538,0,0,0-.281.4,2.723,2.723,0,0,0-.218.608c-.031.124.008.249-.074.362s-.052.063-.153.09a.68.68,0,0,0-.243.1c-.14.082-.275.175-.428.248a1.649,1.649,0,0,1-.588.065l-.548.033a2.052,2.052,0,0,1-.95-.131c-.134-.051-.273-.095-.408-.141a1.613,1.613,0,0,1-.529-.343c-.066-.055-.144-.1-.211-.15-.12-.1-.205-.24-.333-.326-.154-.1-.352-.119-.51-.216a1.67,1.67,0,0,1-.391-.364,1.339,1.339,0,0,1-.339-.549,3.533,3.533,0,0,0-.064-.384c-.031-.094-.106-.143-.14-.232a1.723,1.723,0,0,1-.041-.468,1.553,1.553,0,0,1,.376-1.036.92.92,0,0,1,.369-.287c.207-.1.41-.253.626-.331a5.307,5.307,0,0,1,.611-.169,2.117,2.117,0,0,1,.284-.028c.147-.014.272-.077.415-.1.406-.057.835-.046,1.244-.07A1.5,1.5,0,0,1,19.468,22.8Z" transform="translate(2.033 0.58)"/>
                <path class="cls-1" d="M16.864,25.306a1.21,1.21,0,0,1-.453,0c-.163-.056-.32-.143-.486-.2a1.559,1.559,0,0,1-.448-.151c-.125-.089-.057-.092-.127-.17a1.679,1.679,0,0,0-.2-.168,3.078,3.078,0,0,1-.537-.493c-.13-.183-.078-.553-.091-.77a1.1,1.1,0,0,1,.052-.593c.1-.206.289-.3.427-.493.043-.059.047-.124.091-.179s.126-.065.191-.119a1.562,1.562,0,0,0,.281-.4,2.7,2.7,0,0,0,.218-.608c.031-.124-.008-.249.074-.362s.052-.063.153-.09a.677.677,0,0,0,.243-.1c.14-.083.275-.175.428-.249a1.646,1.646,0,0,1,.588-.065l.548-.033a2.054,2.054,0,0,1,.95.131c.134.051.273.1.408.141a1.6,1.6,0,0,1,.528.343c.067.055.145.1.212.151.12.1.2.239.333.326.154.1.352.118.51.215a1.67,1.67,0,0,1,.391.364,1.336,1.336,0,0,1,.338.549,3.6,3.6,0,0,0,.065.385c.031.093.105.142.14.231a1.723,1.723,0,0,1,.041.468A1.553,1.553,0,0,1,21.36,24.4a.911.911,0,0,1-.369.287c-.207.095-.41.253-.626.331a5.077,5.077,0,0,1-.612.169,2.1,2.1,0,0,1-.284.028c-.147.014-.271.077-.414.1-.406.057-.835.046-1.245.07A1.5,1.5,0,0,1,16.864,25.306Z" transform="translate(2.033 0.58)"/>
                <path class="cls-1" d="M19.446,22.258a1.231,1.231,0,0,1-.453,0c-.163-.057-.321-.144-.486-.2a1.592,1.592,0,0,1-.448-.152c-.126-.089-.057-.092-.127-.17a1.781,1.781,0,0,0-.2-.168,3.04,3.04,0,0,1-.537-.493c-.13-.183-.078-.553-.091-.77a1.111,1.111,0,0,1,.051-.593c.1-.205.29-.3.428-.493.043-.059.047-.123.091-.178s.125-.066.191-.12a1.535,1.535,0,0,0,.28-.4,2.669,2.669,0,0,0,.219-.607c.031-.124-.008-.249.073-.363.072-.1.053-.063.154-.09a.66.66,0,0,0,.243-.1c.14-.083.275-.175.428-.249a1.646,1.646,0,0,1,.588-.065l.548-.032a2.054,2.054,0,0,1,.95.131c.134.05.273.094.408.141a1.582,1.582,0,0,1,.528.343c.067.054.145.1.211.15.121.1.205.239.334.326.154.1.352.119.509.216a1.635,1.635,0,0,1,.392.364,1.33,1.33,0,0,1,.338.549,3.585,3.585,0,0,0,.065.384c.031.094.105.143.14.232a1.716,1.716,0,0,1,.041.467,1.547,1.547,0,0,1-.377,1.036.908.908,0,0,1-.368.287c-.207.1-.41.253-.626.331a5.128,5.128,0,0,1-.612.169,1.951,1.951,0,0,1-.284.028c-.147.014-.271.078-.415.1-.4.056-.834.045-1.244.07A1.506,1.506,0,0,1,19.446,22.258Z" transform="translate(2.033 0.58)"/>
                <path class="cls-5" d="M21.638,26.305a1.231,1.231,0,0,1-.453,0c-.163-.057-.321-.144-.486-.2a1.592,1.592,0,0,1-.448-.152c-.126-.089-.057-.092-.127-.17a1.679,1.679,0,0,0-.2-.168,3.04,3.04,0,0,1-.537-.493c-.13-.183-.078-.553-.091-.77a1.111,1.111,0,0,1,.051-.593c.1-.205.29-.3.428-.493.043-.059.047-.123.091-.178s.125-.066.191-.12a1.535,1.535,0,0,0,.28-.4,2.669,2.669,0,0,0,.219-.607c.031-.124-.008-.249.073-.363s.053-.063.154-.09a.666.666,0,0,0,.243-.1c.14-.083.275-.175.428-.249a1.646,1.646,0,0,1,.588-.065l.548-.032a2.041,2.041,0,0,1,.95.131c.134.05.273.094.408.141a1.567,1.567,0,0,1,.528.343c.067.054.145.095.211.15.121.1.205.239.334.326.154.1.352.118.509.215a1.66,1.66,0,0,1,.392.365,1.33,1.33,0,0,1,.338.549,3.585,3.585,0,0,0,.065.384c.031.094.105.143.14.232a1.716,1.716,0,0,1,.041.467,1.547,1.547,0,0,1-.377,1.036.9.9,0,0,1-.369.287c-.206.1-.409.253-.625.331a5.128,5.128,0,0,1-.612.169,2.1,2.1,0,0,1-.284.028c-.147.014-.271.078-.415.1-.405.056-.834.045-1.244.069A1.5,1.5,0,0,1,21.638,26.305Z" transform="translate(2.033 0.58)"/>
                <path class="cls-5" d="M24.328,24.866a1.231,1.231,0,0,1-.453,0c-.163-.056-.32-.143-.486-.2a1.6,1.6,0,0,1-.448-.151c-.125-.089-.057-.092-.127-.171a1.781,1.781,0,0,0-.2-.168,2.994,2.994,0,0,1-.536-.492c-.131-.183-.079-.553-.091-.77a1.091,1.091,0,0,1,.051-.593c.1-.206.289-.3.427-.493.043-.059.047-.124.091-.179s.126-.065.191-.119a1.538,1.538,0,0,0,.281-.4,2.723,2.723,0,0,0,.218-.608c.031-.124-.008-.249.074-.362s.052-.063.153-.09a.68.68,0,0,0,.243-.1c.14-.082.275-.175.428-.248a1.626,1.626,0,0,1,.588-.065l.548-.033a2.054,2.054,0,0,1,.95.131c.134.051.273.095.408.141a1.613,1.613,0,0,1,.529.343c.066.055.144.1.211.15.12.1.2.239.333.326.154.1.352.119.51.216a1.67,1.67,0,0,1,.391.364,1.339,1.339,0,0,1,.339.549,3.533,3.533,0,0,0,.064.384c.031.094.106.143.14.232a1.723,1.723,0,0,1,.041.468,1.553,1.553,0,0,1-.376,1.036.92.92,0,0,1-.369.287c-.207.095-.41.253-.626.331a5.307,5.307,0,0,1-.611.169,2.117,2.117,0,0,1-.284.028c-.148.014-.272.077-.415.1-.406.057-.835.046-1.245.07A1.5,1.5,0,0,1,24.328,24.866Z" transform="translate(2.033 0.58)"/>
                <path class="cls-5" d="M26.91,21.818a1.231,1.231,0,0,1-.453,0c-.163-.057-.32-.144-.486-.2a1.592,1.592,0,0,1-.448-.152c-.126-.089-.057-.092-.127-.17a1.679,1.679,0,0,0-.2-.168,3.04,3.04,0,0,1-.537-.493c-.13-.183-.078-.553-.091-.77a1.111,1.111,0,0,1,.051-.593c.1-.2.29-.3.428-.493.043-.059.047-.123.091-.178s.126-.066.191-.12a1.562,1.562,0,0,0,.281-.4,2.715,2.715,0,0,0,.218-.607c.031-.124-.008-.249.074-.363s.052-.063.153-.09a.66.66,0,0,0,.243-.1c.14-.083.275-.175.428-.249a1.646,1.646,0,0,1,.588-.065l.548-.032a2.041,2.041,0,0,1,.95.131c.134.05.273.094.408.141a1.567,1.567,0,0,1,.528.343c.067.054.145.095.212.15.12.1.2.239.333.326.154.1.352.118.509.215a1.66,1.66,0,0,1,.392.365,1.33,1.33,0,0,1,.338.549,3.585,3.585,0,0,0,.065.384c.031.094.105.143.14.232a1.716,1.716,0,0,1,.041.467,1.547,1.547,0,0,1-.377,1.036.908.908,0,0,1-.368.287c-.207.095-.41.253-.626.331a5.077,5.077,0,0,1-.612.169,2.1,2.1,0,0,1-.284.028c-.147.014-.271.078-.415.1-.405.056-.834.045-1.244.069A1.5,1.5,0,0,1,26.91,21.818Z" transform="translate(2.033 0.58)"/>
                <path class="cls-1" d="M29.1,25.864a1.19,1.19,0,0,1-.453,0c-.163-.056-.32-.143-.486-.2a1.592,1.592,0,0,1-.448-.152c-.126-.089-.057-.092-.127-.17a1.679,1.679,0,0,0-.2-.168,3.04,3.04,0,0,1-.537-.493c-.13-.183-.078-.553-.091-.77a1.111,1.111,0,0,1,.051-.593c.1-.206.29-.3.428-.493.043-.059.047-.124.091-.179s.125-.065.191-.119a1.562,1.562,0,0,0,.281-.4,2.7,2.7,0,0,0,.218-.608c.031-.123-.008-.249.073-.362s.053-.063.154-.09a.66.66,0,0,0,.243-.1c.14-.083.275-.175.428-.249a1.646,1.646,0,0,1,.588-.065l.548-.032a2.028,2.028,0,0,1,.95.131c.134.05.273.094.408.141a1.58,1.58,0,0,1,.528.342c.067.055.145.1.212.151.12.1.2.239.333.326.154.1.352.118.509.215a1.639,1.639,0,0,1,.392.365,1.333,1.333,0,0,1,.338.548,3.6,3.6,0,0,0,.065.385c.031.093.105.142.14.231a1.723,1.723,0,0,1,.041.468,1.547,1.547,0,0,1-.377,1.036.908.908,0,0,1-.368.287c-.207.095-.41.253-.626.331a5.128,5.128,0,0,1-.612.169,2.1,2.1,0,0,1-.284.028c-.147.014-.271.077-.415.1-.405.057-.834.046-1.244.07A1.492,1.492,0,0,1,29.1,25.864Z" transform="translate(2.033 0.58)"/>
                <path class="cls-6" d="M18.1,22.678c3.994-4.131,9.338-4.692,14.143-2.6-1.084,4.788-4.128,8.686-8.545,10.2-2.505.86-9.231-.164-9.587-.953C13.743,28.5,15.637,25.23,18.1,22.678Z" transform="translate(2.033 0.58)"/>
              </g>
            </g>
          </g>
          <path class="cls-1" d="M18.1,22.678c3.994-4.131,9.338-4.692,14.143-2.6-1.084,4.788-4.128,8.686-8.545,10.2-2.505.86-9.231-.164-9.587-.953C13.743,28.5,15.637,25.23,18.1,22.678Z" transform="translate(2.033 0.58)"/>
        </g>
        <g>
          <g class="cls-9">
            <g class="cls-8">
              <g>
                <path class="cls-5" d="M2.6,12.132a1.241,1.241,0,0,1-.059-.45c.034-.169.1-.337.13-.508a1.585,1.585,0,0,1,.09-.464c.071-.136.084-.069.152-.149a1.753,1.753,0,0,0,.14-.216,3.011,3.011,0,0,1,.416-.6c.164-.154.538-.152.751-.194a1.119,1.119,0,0,1,.595-.029c.216.068.339.246.546.358.064.034.128.03.189.066s.081.116.144.174a1.534,1.534,0,0,0,.438.223,2.659,2.659,0,0,0,.631.135c.127.015.246-.041.369.025s.07.043.11.14a.658.658,0,0,0,.129.227c.1.128.21.25.3.391a1.672,1.672,0,0,1,.143.574l.105.539a2.045,2.045,0,0,1,0,.959c-.032.139-.057.283-.085.423a1.589,1.589,0,0,1-.269.57c-.045.073-.076.156-.121.229-.08.133-.209.235-.278.374-.082.166-.07.365-.145.534a1.634,1.634,0,0,1-.309.437,1.344,1.344,0,0,1-.5.409,3.494,3.494,0,0,0-.372.115c-.089.044-.128.124-.211.17a1.679,1.679,0,0,1-.458.1,1.545,1.545,0,0,1-1.077-.234.9.9,0,0,1-.334-.327c-.122-.192-.306-.372-.412-.576a5.19,5.19,0,0,1-.25-.583,2.288,2.288,0,0,1-.066-.278c-.033-.144-.112-.258-.151-.4-.111-.394-.158-.821-.237-1.223A1.506,1.506,0,0,1,2.6,12.132Z" transform="translate(2.033 0.58)"/>
                <path class="cls-1" d="M4.479,11.955a1.2,1.2,0,0,1-.059-.45c.034-.169.1-.337.13-.508a1.553,1.553,0,0,1,.09-.464c.071-.136.083-.069.152-.149a1.753,1.753,0,0,0,.14-.216,3.04,3.04,0,0,1,.416-.6c.164-.154.538-.152.751-.194a1.116,1.116,0,0,1,.594-.029c.217.068.34.246.546.358.064.034.129.03.19.066s.081.116.143.174a1.561,1.561,0,0,0,.438.223,2.731,2.731,0,0,0,.632.136c.127.014.246-.042.369.024s.069.043.11.14a.658.658,0,0,0,.129.227c.1.128.21.25.3.391a1.672,1.672,0,0,1,.143.574L9.8,12.2a2.045,2.045,0,0,1,0,.959c-.032.139-.057.283-.085.423a1.606,1.606,0,0,1-.269.57c-.045.073-.076.156-.121.229-.081.133-.209.235-.278.375-.082.165-.07.364-.145.533a1.657,1.657,0,0,1-.309.437,1.339,1.339,0,0,1-.5.409,3.642,3.642,0,0,0-.372.115c-.088.044-.127.124-.21.17a1.7,1.7,0,0,1-.458.1,1.543,1.543,0,0,1-1.077-.234.914.914,0,0,1-.335-.327c-.121-.192-.305-.372-.411-.576a5.19,5.19,0,0,1-.25-.583,2.288,2.288,0,0,1-.066-.278c-.033-.143-.113-.258-.152-.4-.11-.394-.157-.821-.236-1.223A1.5,1.5,0,0,1,4.479,11.955Z" transform="translate(2.033 0.58)"/>
                <path class="cls-5" d="M7.846,14.1a1.233,1.233,0,0,1-.059-.449c.034-.169.1-.337.13-.508a1.6,1.6,0,0,1,.09-.465c.071-.136.084-.068.152-.148a1.753,1.753,0,0,0,.14-.216,3.011,3.011,0,0,1,.416-.6c.164-.154.538-.152.751-.194a1.119,1.119,0,0,1,.6-.029c.216.068.339.246.546.358.064.034.128.03.189.066s.081.116.144.174a1.534,1.534,0,0,0,.438.223,2.659,2.659,0,0,0,.631.135c.127.015.246-.041.369.024s.07.044.11.141a.658.658,0,0,0,.129.227c.1.128.21.25.3.391a1.672,1.672,0,0,1,.143.574l.105.539a2.045,2.045,0,0,1,0,.959c-.032.139-.057.283-.085.423a1.6,1.6,0,0,1-.269.57c-.045.073-.076.155-.121.229-.08.133-.209.235-.278.374-.082.166-.07.365-.145.534a1.634,1.634,0,0,1-.309.437,1.344,1.344,0,0,1-.5.409,3.278,3.278,0,0,0-.372.115c-.089.044-.128.124-.211.17a1.679,1.679,0,0,1-.458.1,1.551,1.551,0,0,1-1.077-.234.9.9,0,0,1-.334-.327c-.122-.192-.306-.372-.412-.576a5.27,5.27,0,0,1-.25-.583,2.111,2.111,0,0,1-.065-.278c-.034-.144-.113-.258-.152-.4-.111-.394-.158-.821-.237-1.223A1.509,1.509,0,0,1,7.846,14.1Z" transform="translate(2.033 0.58)"/>
                <path class="cls-5" d="M4.129,16.819a1.236,1.236,0,0,1-.059-.449c.035-.169.1-.337.13-.508a1.6,1.6,0,0,1,.091-.465c.071-.136.083-.068.151-.148a1.77,1.77,0,0,0,.141-.217,3.027,3.027,0,0,1,.416-.6c.164-.153.537-.151.751-.193a1.1,1.1,0,0,1,.594-.029c.217.068.34.246.546.357.064.035.129.031.189.067s.082.115.144.173a1.55,1.55,0,0,0,.438.224,2.678,2.678,0,0,0,.632.135c.126.014.245-.042.369.024.108.058.069.044.109.14a.678.678,0,0,0,.129.228c.1.128.211.249.3.391a1.627,1.627,0,0,1,.143.573q.054.27.106.539a2.063,2.063,0,0,1,0,.96c-.033.139-.058.283-.086.423a1.583,1.583,0,0,1-.268.569c-.046.074-.076.156-.121.23-.081.132-.209.235-.278.374-.082.166-.071.364-.146.534a1.648,1.648,0,0,1-.308.436,1.32,1.32,0,0,1-.5.409c-.094.034-.27.065-.372.115s-.127.125-.211.171a1.717,1.717,0,0,1-.458.1,1.551,1.551,0,0,1-1.077-.234.919.919,0,0,1-.334-.327c-.122-.192-.3-.372-.412-.576a5.264,5.264,0,0,1-.249-.583,2.115,2.115,0,0,1-.066-.278c-.033-.144-.113-.259-.152-.4-.11-.394-.157-.821-.236-1.224A1.5,1.5,0,0,1,4.129,16.819Z" transform="translate(2.033 0.58)"/>
                <path class="cls-1" d="M5.915,19.292a1.211,1.211,0,0,1-.058-.449c.034-.169.1-.337.13-.508a1.565,1.565,0,0,1,.09-.465c.071-.136.083-.068.151-.148a1.7,1.7,0,0,0,.141-.217,3.07,3.07,0,0,1,.416-.6c.164-.153.537-.151.751-.193a1.1,1.1,0,0,1,.594-.029c.217.068.34.246.546.358.064.034.129.03.189.066s.082.116.144.173a1.524,1.524,0,0,0,.438.224,2.678,2.678,0,0,0,.632.135c.127.014.245-.042.369.024.108.058.069.044.11.14a.659.659,0,0,0,.128.228c.1.128.211.249.3.391a1.65,1.65,0,0,1,.144.574l.105.538a2.05,2.05,0,0,1,0,.96c-.033.139-.057.283-.085.423a1.6,1.6,0,0,1-.269.569c-.046.074-.076.156-.121.23-.081.132-.209.235-.278.374-.082.166-.071.364-.146.534a1.648,1.648,0,0,1-.308.436,1.32,1.32,0,0,1-.5.409,3.655,3.655,0,0,0-.372.116c-.089.044-.127.124-.211.17a1.719,1.719,0,0,1-.457.1,1.552,1.552,0,0,1-1.078-.234.927.927,0,0,1-.334-.327c-.122-.192-.3-.372-.412-.576a5.264,5.264,0,0,1-.249-.583,2.115,2.115,0,0,1-.066-.278c-.033-.144-.113-.259-.152-.4-.11-.394-.157-.821-.236-1.224A1.5,1.5,0,0,1,5.915,19.292Z" transform="translate(2.033 0.58)"/>
                <path class="cls-1" d="M9.283,21.442a1.194,1.194,0,0,1-.059-.449c.034-.169.1-.337.13-.508a1.565,1.565,0,0,1,.09-.465c.071-.136.083-.068.152-.148a1.768,1.768,0,0,0,.14-.217,3.07,3.07,0,0,1,.416-.6c.164-.153.538-.151.751-.193a1.1,1.1,0,0,1,.594-.029c.217.068.34.246.546.357.064.035.129.031.19.067s.081.115.143.173a1.563,1.563,0,0,0,.438.224,2.678,2.678,0,0,0,.632.135c.127.014.246-.042.369.024s.069.044.11.14a.646.646,0,0,0,.129.228c.1.128.21.249.3.391a1.672,1.672,0,0,1,.143.573l.105.539a2.05,2.05,0,0,1,0,.96c-.032.139-.057.283-.085.423a1.6,1.6,0,0,1-.269.569c-.045.074-.076.156-.121.23-.081.132-.209.235-.278.374-.082.166-.071.364-.145.534a1.652,1.652,0,0,1-.309.436,1.32,1.32,0,0,1-.5.409,3.655,3.655,0,0,0-.372.116c-.088.043-.127.124-.211.17a1.719,1.719,0,0,1-.457.1,1.548,1.548,0,0,1-1.077-.234.922.922,0,0,1-.335-.327c-.121-.192-.3-.372-.411-.576a5.27,5.27,0,0,1-.25-.583,2.288,2.288,0,0,1-.066-.278c-.033-.144-.113-.259-.152-.4-.11-.394-.157-.821-.236-1.224A1.5,1.5,0,0,1,9.283,21.442Z" transform="translate(2.033 0.58)"/>
                <path class="cls-5" d="M5.566,24.157a1.241,1.241,0,0,1-.059-.45c.034-.169.1-.336.13-.508a1.631,1.631,0,0,1,.09-.464c.072-.136.084-.068.152-.149a1.68,1.68,0,0,0,.14-.216,3,3,0,0,1,.417-.6c.164-.154.537-.152.751-.193a1.1,1.1,0,0,1,.594-.029c.217.068.339.246.546.357.064.035.129.031.189.066s.082.116.144.174a1.537,1.537,0,0,0,.438.224,2.721,2.721,0,0,0,.631.135c.127.014.246-.042.369.024s.07.044.11.14a.688.688,0,0,0,.129.228c.1.127.211.249.3.391a1.627,1.627,0,0,1,.143.573c.035.18.071.359.106.539a2.045,2.045,0,0,1,0,.959c-.032.14-.057.283-.085.423a1.573,1.573,0,0,1-.269.57c-.045.074-.075.156-.12.229-.081.133-.21.235-.279.375-.081.166-.07.364-.145.533a1.634,1.634,0,0,1-.309.437,1.336,1.336,0,0,1-.5.409c-.094.034-.27.065-.372.115s-.127.124-.211.17a1.718,1.718,0,0,1-.458.1,1.546,1.546,0,0,1-1.077-.235.9.9,0,0,1-.334-.327c-.122-.192-.305-.371-.412-.575A5.2,5.2,0,0,1,6.069,27,1.922,1.922,0,0,1,6,26.727c-.033-.144-.113-.259-.152-.4-.111-.395-.157-.821-.236-1.224A1.5,1.5,0,0,1,5.566,24.157Z" transform="translate(2.033 0.58)"/>
                <path class="cls-1" d="M8.4,26.4a1.236,1.236,0,0,1,.059.449c-.034.169-.1.337-.13.508a1.631,1.631,0,0,1-.09.465c-.072.136-.084.068-.152.148a1.768,1.768,0,0,0-.14.217,3.07,3.07,0,0,1-.416.6c-.165.153-.538.151-.752.193a1.1,1.1,0,0,1-.594.029c-.217-.068-.339-.246-.546-.357-.064-.035-.129-.031-.189-.066s-.081-.116-.144-.174a1.537,1.537,0,0,0-.438-.224,2.659,2.659,0,0,0-.631-.135c-.127-.014-.246.042-.369-.024s-.07-.044-.11-.14a.662.662,0,0,0-.129-.228c-.1-.128-.21-.249-.3-.391A1.627,1.627,0,0,1,3.18,26.7c-.035-.18-.071-.36-.106-.539a2.05,2.05,0,0,1,0-.96c.032-.139.057-.282.085-.423a1.568,1.568,0,0,1,.269-.569c.045-.074.075-.156.12-.23.081-.132.21-.235.279-.374.081-.166.07-.364.145-.534a1.629,1.629,0,0,1,.309-.436,1.317,1.317,0,0,1,.5-.409,3.824,3.824,0,0,0,.372-.115c.089-.044.128-.124.211-.171a1.717,1.717,0,0,1,.458-.1,1.551,1.551,0,0,1,1.077.234.919.919,0,0,1,.334.327c.122.192.3.372.412.576a5.264,5.264,0,0,1,.249.583,1.967,1.967,0,0,1,.066.278c.034.144.113.259.152.4.111.394.158.821.236,1.224A1.5,1.5,0,0,1,8.4,26.4Z" transform="translate(2.033 0.58)"/>
                <path class="cls-1" d="M5.031,24.251a1.238,1.238,0,0,1,.059.45c-.034.168-.1.336-.13.508a1.6,1.6,0,0,1-.091.464c-.071.136-.083.068-.151.149a1.8,1.8,0,0,0-.141.216,2.958,2.958,0,0,1-.416.6c-.164.153-.537.152-.751.193a1.1,1.1,0,0,1-.594.029c-.217-.068-.339-.246-.546-.357-.064-.035-.129-.031-.189-.066s-.082-.116-.144-.174a1.55,1.55,0,0,0-.438-.224A2.718,2.718,0,0,0,.867,25.9c-.126-.014-.245.042-.368-.024s-.07-.044-.11-.14A.688.688,0,0,0,.26,25.51c-.1-.128-.211-.249-.3-.391a1.627,1.627,0,0,1-.143-.573q-.054-.27-.106-.539a2.045,2.045,0,0,1,0-.959c.032-.14.057-.283.085-.423a1.573,1.573,0,0,1,.269-.57c.045-.074.075-.156.12-.23.081-.132.21-.235.278-.374.082-.166.071-.364.146-.533a1.637,1.637,0,0,1,.308-.437,1.32,1.32,0,0,1,.5-.409c.094-.034.27-.065.372-.115s.127-.124.211-.171a1.717,1.717,0,0,1,.458-.1,1.551,1.551,0,0,1,1.077.234.919.919,0,0,1,.334.327c.122.193.3.372.412.576a5.2,5.2,0,0,1,.249.584,1.922,1.922,0,0,1,.066.277c.033.144.113.259.152.4.111.395.157.821.236,1.224A1.5,1.5,0,0,1,5.031,24.251Z" transform="translate(2.033 0.58)"/>
                <path class="cls-5" d="M8.747,21.536a1.241,1.241,0,0,1,.059.45c-.034.169-.1.336-.13.508a1.585,1.585,0,0,1-.09.464c-.071.136-.084.069-.152.149a1.68,1.68,0,0,0-.14.216,3.04,3.04,0,0,1-.416.6c-.164.154-.538.152-.751.194a1.106,1.106,0,0,1-.594.028c-.217-.068-.34-.245-.547-.357-.063-.035-.128-.03-.189-.066s-.081-.116-.144-.174a1.534,1.534,0,0,0-.438-.223,2.711,2.711,0,0,0-.631-.136c-.127-.014-.246.042-.369-.024-.108-.058-.07-.043-.11-.14a.658.658,0,0,0-.129-.227c-.1-.128-.21-.25-.3-.392a1.66,1.66,0,0,1-.143-.573l-.1-.539a2.045,2.045,0,0,1,0-.959c.032-.139.057-.283.085-.423a1.606,1.606,0,0,1,.269-.57c.045-.073.076-.156.121-.229.081-.133.209-.235.278-.375.082-.165.07-.364.145-.533a1.634,1.634,0,0,1,.309-.437,1.344,1.344,0,0,1,.5-.409,3.582,3.582,0,0,0,.373-.115c.088-.044.127-.124.21-.17a1.679,1.679,0,0,1,.458-.1,1.539,1.539,0,0,1,1.077.234.9.9,0,0,1,.334.327c.122.192.306.372.412.576a5.112,5.112,0,0,1,.25.583,2.273,2.273,0,0,1,.066.277c.033.144.113.259.152.4.11.394.157.821.236,1.223A1.5,1.5,0,0,1,8.747,21.536Z" transform="translate(2.033 0.58)"/>
                <path class="cls-5" d="M6.961,19.063a1.241,1.241,0,0,1,.059.45c-.034.169-.1.336-.13.508a1.591,1.591,0,0,1-.09.464c-.071.136-.084.068-.152.149a1.68,1.68,0,0,0-.14.216,3.04,3.04,0,0,1-.416.6c-.164.154-.538.152-.751.194a1.109,1.109,0,0,1-.595.028c-.216-.068-.339-.246-.546-.357-.064-.035-.128-.031-.189-.066s-.081-.116-.144-.174a1.537,1.537,0,0,0-.438-.224,2.71,2.71,0,0,0-.631-.135c-.127-.014-.246.042-.369-.024-.108-.058-.07-.044-.11-.14a.671.671,0,0,0-.129-.228c-.1-.127-.21-.249-.3-.391a1.672,1.672,0,0,1-.143-.573l-.105-.539a2.045,2.045,0,0,1,0-.959c.032-.14.057-.283.085-.423a1.589,1.589,0,0,1,.269-.57c.045-.074.076-.156.121-.229.08-.133.209-.235.278-.375.082-.166.07-.364.145-.533a1.634,1.634,0,0,1,.309-.437,1.344,1.344,0,0,1,.5-.409,3.741,3.741,0,0,0,.372-.115c.089-.044.128-.124.211-.17a1.679,1.679,0,0,1,.458-.1,1.54,1.54,0,0,1,1.077.234.9.9,0,0,1,.334.327c.122.192.306.371.412.575a5.205,5.205,0,0,1,.25.584,2.229,2.229,0,0,1,.066.277c.033.144.112.259.152.4.11.4.157.821.236,1.224A1.506,1.506,0,0,1,6.961,19.063Z" transform="translate(2.033 0.58)"/>
                <path class="cls-5" d="M3.594,16.913a1.241,1.241,0,0,1,.059.45c-.034.169-.1.336-.13.508a1.618,1.618,0,0,1-.09.464c-.072.136-.084.069-.152.149a1.68,1.68,0,0,0-.14.216,3.04,3.04,0,0,1-.416.6c-.165.154-.538.152-.752.194a1.1,1.1,0,0,1-.594.028c-.217-.068-.339-.245-.546-.357C.769,19.128.7,19.133.644,19.1S.563,18.981.5,18.923A1.563,1.563,0,0,0,.062,18.7a2.762,2.762,0,0,0-.631-.135c-.127-.014-.246.042-.369-.024s-.07-.043-.11-.14a.658.658,0,0,0-.129-.227c-.1-.128-.21-.25-.3-.392a1.617,1.617,0,0,1-.143-.573c-.035-.18-.071-.359-.106-.539a2.045,2.045,0,0,1,0-.959c.032-.14.057-.283.085-.423a1.573,1.573,0,0,1,.269-.57c.045-.073.075-.156.12-.229.081-.133.21-.235.279-.375.081-.165.07-.364.145-.533a1.634,1.634,0,0,1,.309-.437,1.336,1.336,0,0,1,.5-.409,3.566,3.566,0,0,0,.372-.115c.089-.044.128-.124.211-.17a1.679,1.679,0,0,1,.458-.1A1.54,1.54,0,0,1,2.1,12.58a.911.911,0,0,1,.334.327c.122.192.3.372.412.576a5.3,5.3,0,0,1,.25.583,2.1,2.1,0,0,1,.065.277c.034.144.113.259.152.4.111.394.158.821.236,1.223A1.5,1.5,0,0,1,3.594,16.913Z" transform="translate(2.033 0.58)"/>
                <path class="cls-1" d="M7.31,14.2a1.192,1.192,0,0,1,.059.449c-.034.169-.1.337-.13.508a1.565,1.565,0,0,1-.09.465c-.071.136-.083.068-.152.148a1.877,1.877,0,0,0-.14.216,3.011,3.011,0,0,1-.416.6c-.164.154-.537.152-.751.194a1.106,1.106,0,0,1-.594.029c-.217-.068-.34-.246-.546-.358-.064-.034-.129-.03-.189-.066s-.082-.116-.144-.174a1.561,1.561,0,0,0-.438-.223,2.678,2.678,0,0,0-.632-.135c-.127-.015-.245.041-.369-.024-.108-.058-.069-.044-.11-.141a.655.655,0,0,0-.128-.227c-.1-.128-.211-.25-.3-.391a1.65,1.65,0,0,1-.144-.574l-.1-.539a2.045,2.045,0,0,1,0-.959c.033-.139.057-.283.085-.423A1.615,1.615,0,0,1,2.343,12c.045-.073.076-.155.121-.229.081-.133.209-.235.278-.374.082-.166.071-.365.146-.534a1.632,1.632,0,0,1,.308-.436,1.332,1.332,0,0,1,.5-.41A3.407,3.407,0,0,0,4.067,9.9c.088-.044.127-.124.211-.17a1.681,1.681,0,0,1,.457-.1,1.552,1.552,0,0,1,1.078.234.919.919,0,0,1,.334.327c.121.192.3.372.411.576a5.087,5.087,0,0,1,.25.583,2.288,2.288,0,0,1,.066.278c.033.144.113.258.152.4.11.394.157.821.236,1.223A1.5,1.5,0,0,1,7.31,14.2Z" transform="translate(2.033 0.58)"/>
                <path class="cls-6" d="M4.132,26.124C-.5,22.72-.275,16.9,1.152,11.858c4.89.433,10.415,3.556,11.888,7.751.878,2.5.276,8.857-.458,9.315C11.816,29.4,6.991,28.226,4.132,26.124Z" transform="translate(2.033 0.58)"/>
              </g>
            </g>
          </g>
          <path class="cls-1" d="M4.132,26.124C-.5,22.72-.275,16.9,1.152,11.858c4.89.433,10.415,3.556,11.888,7.751.878,2.5.276,8.857-.458,9.315C11.816,29.4,6.991,28.226,4.132,26.124Z" transform="translate(2.033 0.58)"/>
        </g>
        <path class="cls-10" d="M27,21.867l-.572.287-1.506.748-1,.506c-.354.181-.729.368-1.113.569l-.586.3-.6.317c-.4.208-.8.434-1.211.653-.205.107-.4.223-.6.337l-.6.336-1.146.677-1.053.663c-.326.223-.639.429-.928.62s-.533.392-.763.556-.416.323-.576.448c-.315.255-.5.4-.5.4s.15-.177.423-.481a7,7,0,0,1,.51-.533c.208-.2.441-.417.7-.651s.565-.463.881-.714.668-.484,1.026-.738c.182-.122.371-.241.56-.363s.381-.248.578-.366c.4-.233.8-.474,1.207-.7s.82-.446,1.234-.645.817-.4,1.216-.58.786-.347,1.155-.5.725-.287,1.05-.414c.654-.245,1.206-.431,1.6-.551S27,21.867,27,21.867Z" transform="translate(2.033 0.58)"/>
        <path class="cls-10" d="M12.9,29.02s-.094-.086-.249-.244-.372-.385-.623-.666-.533-.615-.827-.98c-.147-.183-.3-.373-.445-.569s-.3-.395-.447-.6-.293-.405-.433-.607-.276-.4-.406-.6c-.259-.391-.491-.762-.683-1.086s-.342-.6-.444-.8-.156-.312-.156-.312.094.086.249.244.372.385.623.665.534.615.827.981c.147.183.3.372.446.568s.3.4.446.6.293.405.432.607.277.4.406.6c.259.391.491.763.683,1.087s.343.6.445.795S12.9,29.02,12.9,29.02Z" transform="translate(2.033 0.58)"/>
        <path class="cls-1" d="M19.7,12.552l-.483,1.433-.551,1.642c-.21.635-.448,1.351-.707,2.132s-.533,1.629-.827,2.524-.6,1.844-.924,2.819-.653,1.988-1,3.011l-.263.77-.133.387-.033.1-.021.058-.018.048-.073.192L14.08,29.2l-1.152,3.063c-.377,1.012-.762,2-1.123,2.966s-.722,1.89-1.062,2.771-.666,1.711-.971,2.476-.588,1.465-.843,2.085-.482,1.157-.669,1.6-.341.789-.443,1.025l-.16.362s.155-.528.44-1.447c.143-.459.314-1.017.518-1.654s.429-1.359.686-2.141l.4-1.222.434-1.305c.3-.895.612-1.84.952-2.812s.682-1.98,1.051-3,.745-2.049,1.131-3.079l.587-1.537.073-.192.018-.048.014-.037.034-.1.138-.385.273-.765c.361-1.018.729-2.016,1.079-2.984s.7-1.9,1.036-2.784c.168-.441.33-.871.493-1.285l.477-1.194c.305-.767.6-1.463.865-2.079s.5-1.15.7-1.588.362-.779.471-1.013Z" transform="translate(2.033 0.58)"/>
        <g>
          <g>
            <g class="cls-11">
              <g class="cls-8">
                <g>
                  <path class="cls-5" d="M5.768,25.1a1.03,1.03,0,0,1,.089-.366c.077-.121.177-.231.252-.355a1.329,1.329,0,0,1,.209-.332c.1-.084.085-.028.162-.07a1.4,1.4,0,0,0,.173-.126,2.477,2.477,0,0,1,.5-.338c.173-.07.462.043.64.074a.92.92,0,0,1,.469.156c.147.117.189.292.316.44.039.046.09.062.126.107s.029.115.06.178a1.264,1.264,0,0,0,.272.3,2.256,2.256,0,0,0,.449.294c.094.049.2.041.279.129s.04.054.043.141a.545.545,0,0,0,.031.215c.04.129.089.256.119.394a1.354,1.354,0,0,1-.061.486c-.026.15-.052.3-.079.449a1.7,1.7,0,0,1-.289.743c-.066.1-.128.2-.192.3a1.318,1.318,0,0,1-.379.361c-.057.043-.105.1-.161.141-.1.079-.233.12-.328.207-.113.1-.163.261-.272.37a1.373,1.373,0,0,1-.37.246,1.1,1.1,0,0,1-.508.167c-.083,0-.229-.03-.323-.022s-.135.058-.214.069a1.4,1.4,0,0,1-.385-.057,1.283,1.283,0,0,1-.764-.5.748.748,0,0,1-.161-.353c-.037-.186-.126-.38-.147-.569a4.207,4.207,0,0,1-.019-.527,1.647,1.647,0,0,1,.032-.234c.017-.122-.01-.235,0-.354.033-.339.124-.683.183-1.018A1.249,1.249,0,0,1,5.768,25.1Z" transform="translate(2.033 0.58)"/>
                  <path class="cls-1" d="M7.28,25.53a1.009,1.009,0,0,1,.089-.366c.077-.12.177-.231.252-.354a1.307,1.307,0,0,1,.209-.333c.1-.084.085-.028.162-.07a1.382,1.382,0,0,0,.173-.125,2.482,2.482,0,0,1,.5-.339c.173-.07.462.043.64.075a.919.919,0,0,1,.469.155c.147.117.189.292.316.44.039.046.09.062.126.108s.029.114.06.177a1.264,1.264,0,0,0,.272.3A2.256,2.256,0,0,0,11,25.5c.094.049.2.041.278.129s.041.054.044.141a.543.543,0,0,0,.031.215c.04.129.089.256.119.394a1.362,1.362,0,0,1-.061.487c-.026.149-.053.3-.079.449a1.71,1.71,0,0,1-.289.742c-.066.1-.128.2-.192.3a1.318,1.318,0,0,1-.379.361c-.057.043-.105.1-.162.141-.1.079-.232.12-.327.207-.113.1-.164.261-.272.37a1.373,1.373,0,0,1-.37.246,1.1,1.1,0,0,1-.508.167c-.083,0-.229-.03-.323-.022s-.135.058-.214.069a1.4,1.4,0,0,1-.385-.057,1.284,1.284,0,0,1-.765-.5.751.751,0,0,1-.16-.353c-.037-.185-.126-.379-.147-.569a4.207,4.207,0,0,1-.019-.527,1.647,1.647,0,0,1,.032-.234c.017-.122-.01-.234,0-.354.033-.338.124-.683.183-1.018A1.244,1.244,0,0,1,7.28,25.53Z" transform="translate(2.033 0.58)"/>
                  <path class="cls-5" d="M9.245,28.2a1,1,0,0,1,.089-.366c.077-.121.177-.231.252-.355a1.354,1.354,0,0,1,.209-.333c.1-.083.085-.027.162-.069a1.506,1.506,0,0,0,.173-.126,2.524,2.524,0,0,1,.5-.339c.173-.069.462.044.64.075a.919.919,0,0,1,.469.155c.147.118.189.292.316.441.039.045.09.062.126.107s.029.114.06.178a1.283,1.283,0,0,0,.272.3,2.251,2.251,0,0,0,.449.293c.094.049.2.042.279.129s.04.055.043.142a.548.548,0,0,0,.031.215c.04.129.089.256.119.393a1.357,1.357,0,0,1-.061.487c-.026.15-.052.3-.079.449a1.693,1.693,0,0,1-.289.742c-.066.1-.128.2-.192.3a1.292,1.292,0,0,1-.379.361c-.057.044-.105.1-.162.142-.1.078-.232.119-.327.207-.113.1-.163.261-.272.369a1.35,1.35,0,0,1-.37.246,1.1,1.1,0,0,1-.508.168c-.083,0-.229-.03-.323-.022s-.135.058-.214.069a1.4,1.4,0,0,1-.385-.057,1.283,1.283,0,0,1-.764-.5.747.747,0,0,1-.161-.354c-.037-.185-.126-.379-.147-.569a4.184,4.184,0,0,1-.019-.526,1.661,1.661,0,0,1,.032-.235c.017-.121-.01-.234,0-.353.033-.339.124-.683.183-1.019A1.246,1.246,0,0,1,9.245,28.2Z" transform="translate(2.033 0.58)"/>
                  <path class="cls-5" d="M5.555,29.193a1.03,1.03,0,0,1,.089-.366c.077-.12.177-.231.252-.354a1.335,1.335,0,0,1,.209-.333c.1-.084.085-.028.162-.07a1.382,1.382,0,0,0,.173-.125,2.539,2.539,0,0,1,.5-.339c.173-.07.462.043.64.075a.919.919,0,0,1,.469.155c.147.117.189.292.316.44.039.046.09.062.127.108s.028.114.059.177a1.264,1.264,0,0,0,.272.3,2.256,2.256,0,0,0,.449.294c.094.049.2.041.279.129s.04.054.043.141a.544.544,0,0,0,.032.215c.04.129.088.256.118.394a1.384,1.384,0,0,1-.06.487c-.027.149-.053.3-.08.449a1.685,1.685,0,0,1-.289.742c-.066.1-.128.2-.192.3a1.315,1.315,0,0,1-.378.361c-.057.043-.106.1-.162.141-.1.079-.233.12-.328.207-.113.1-.163.261-.272.37a1.383,1.383,0,0,1-.369.246,1.117,1.117,0,0,1-.509.168,2.745,2.745,0,0,0-.322-.022c-.082.007-.136.058-.215.068a1.4,1.4,0,0,1-.385-.057A1.279,1.279,0,0,1,5.42,33a.758.758,0,0,1-.161-.353c-.037-.185-.125-.379-.147-.569a4.207,4.207,0,0,1-.019-.527,1.647,1.647,0,0,1,.032-.234c.017-.122-.01-.234,0-.354.033-.338.124-.683.183-1.018A1.251,1.251,0,0,1,5.555,29.193Z" transform="translate(2.033 0.58)"/>
                  <path class="cls-1" d="M6.2,31.642a1.025,1.025,0,0,1,.089-.365c.077-.121.177-.231.252-.355a1.354,1.354,0,0,1,.209-.333c.1-.084.085-.028.162-.07a1.382,1.382,0,0,0,.173-.125,2.524,2.524,0,0,1,.5-.339c.173-.07.462.043.64.075a.919.919,0,0,1,.469.155c.147.118.189.292.316.44.039.046.09.062.126.108s.029.114.06.178a1.283,1.283,0,0,0,.272.3,2.3,2.3,0,0,0,.449.293c.094.049.2.041.279.129s.04.055.043.142a.559.559,0,0,0,.031.214c.04.129.089.256.119.394a1.36,1.36,0,0,1-.061.487c-.026.15-.052.3-.079.449a1.685,1.685,0,0,1-.289.742c-.066.1-.128.2-.192.3a1.318,1.318,0,0,1-.379.361c-.057.044-.1.1-.161.142-.1.078-.233.119-.328.206-.113.1-.163.261-.272.37a1.35,1.35,0,0,1-.37.246,1.109,1.109,0,0,1-.508.168,2.981,2.981,0,0,0-.323-.022c-.081.007-.135.058-.214.069a1.436,1.436,0,0,1-.385-.057,1.285,1.285,0,0,1-.764-.5.739.739,0,0,1-.161-.353c-.037-.185-.126-.379-.147-.569A4.191,4.191,0,0,1,5.737,34a1.661,1.661,0,0,1,.032-.235c.017-.121-.01-.234,0-.354.033-.338.124-.683.183-1.018A1.251,1.251,0,0,1,6.2,31.642Z" transform="translate(2.033 0.58)"/>
                  <path class="cls-1" d="M8.164,34.314a1.03,1.03,0,0,1,.089-.366c.077-.12.177-.231.252-.354a1.335,1.335,0,0,1,.209-.333c.1-.084.085-.028.162-.07a1.382,1.382,0,0,0,.173-.125,2.539,2.539,0,0,1,.5-.339c.173-.07.462.043.64.075a.919.919,0,0,1,.469.155c.147.117.189.292.316.44.039.046.09.062.127.108s.028.114.059.177a1.264,1.264,0,0,0,.272.3,2.256,2.256,0,0,0,.449.294c.094.049.2.041.279.129s.04.054.043.141a.544.544,0,0,0,.032.215c.04.129.088.256.118.394a1.384,1.384,0,0,1-.06.487c-.027.149-.053.3-.08.449a1.685,1.685,0,0,1-.289.742c-.066.1-.128.2-.192.3a1.315,1.315,0,0,1-.378.361c-.057.043-.106.1-.162.141-.1.079-.233.12-.328.207-.113.1-.163.261-.272.37a1.383,1.383,0,0,1-.369.246,1.113,1.113,0,0,1-.509.168,2.974,2.974,0,0,0-.322-.023c-.082.008-.136.058-.215.069a1.4,1.4,0,0,1-.385-.057,1.279,1.279,0,0,1-.764-.5.763.763,0,0,1-.161-.353c-.037-.185-.125-.379-.147-.569a4.207,4.207,0,0,1-.019-.527,1.647,1.647,0,0,1,.032-.234c.017-.122-.01-.234,0-.354.033-.338.124-.683.183-1.018A1.251,1.251,0,0,1,8.164,34.314Z" transform="translate(2.033 0.58)"/>
                  <path class="cls-5" d="M4.474,35.305a1.025,1.025,0,0,1,.089-.365c.077-.121.178-.231.253-.355a1.321,1.321,0,0,1,.208-.333c.1-.084.085-.028.162-.069a1.605,1.605,0,0,0,.174-.126,2.524,2.524,0,0,1,.5-.339c.173-.07.461.043.639.075a.919.919,0,0,1,.469.155c.148.118.189.292.316.44.039.046.091.062.127.108s.028.114.059.178a1.288,1.288,0,0,0,.273.3,2.259,2.259,0,0,0,.448.293c.094.049.2.041.279.129s.041.055.043.142a.542.542,0,0,0,.032.214c.04.13.088.256.118.394a1.379,1.379,0,0,1-.06.487c-.027.15-.053.3-.08.449a1.7,1.7,0,0,1-.288.742c-.067.1-.129.2-.193.3a1.315,1.315,0,0,1-.378.361c-.057.044-.105.1-.162.142-.1.078-.233.119-.328.207-.113.1-.163.261-.272.369a1.36,1.36,0,0,1-.369.246,1.113,1.113,0,0,1-.509.168A2.98,2.98,0,0,0,5.7,39.6c-.082.007-.136.058-.215.069a1.436,1.436,0,0,1-.385-.057,1.285,1.285,0,0,1-.764-.5.758.758,0,0,1-.161-.353c-.037-.185-.125-.379-.147-.569a4.382,4.382,0,0,1-.019-.526,2.013,2.013,0,0,1,.032-.235c.017-.121-.01-.234,0-.354.032-.338.123-.682.183-1.018A1.243,1.243,0,0,1,4.474,35.305Z" transform="translate(2.033 0.58)"/>
                  <path class="cls-1" d="M6,37.89a1.035,1.035,0,0,1-.089.366c-.077.12-.178.231-.253.354a1.35,1.35,0,0,1-.208.333c-.1.084-.086.028-.162.07a1.466,1.466,0,0,0-.174.125,2.524,2.524,0,0,1-.5.339c-.173.07-.461-.043-.639-.075a.919.919,0,0,1-.469-.155c-.148-.118-.189-.292-.316-.44-.039-.046-.091-.062-.127-.108s-.028-.114-.059-.177a1.292,1.292,0,0,0-.273-.3,2.259,2.259,0,0,0-.448-.293c-.094-.049-.2-.041-.279-.129s-.041-.055-.043-.141a.563.563,0,0,0-.032-.215c-.04-.129-.088-.256-.118-.394a1.359,1.359,0,0,1,.06-.487c.027-.149.053-.3.08-.449a1.7,1.7,0,0,1,.288-.742c.067-.1.129-.2.193-.3a1.315,1.315,0,0,1,.378-.361c.057-.043.1-.1.162-.142.1-.078.233-.119.328-.206.113-.1.163-.261.272-.37a1.36,1.36,0,0,1,.369-.246,1.113,1.113,0,0,1,.509-.168,2.962,2.962,0,0,0,.322.022c.082-.007.136-.058.214-.069a1.478,1.478,0,0,1,.386.057,1.288,1.288,0,0,1,.764.5.758.758,0,0,1,.161.353c.037.185.125.379.147.569a4.4,4.4,0,0,1,.019.526,2.013,2.013,0,0,1-.032.235c-.018.121.01.234,0,.354-.032.338-.123.683-.183,1.018A1.25,1.25,0,0,1,6,37.89Z" transform="translate(2.033 0.58)"/>
                  <path class="cls-1" d="M4.032,35.218a1.03,1.03,0,0,1-.089.366c-.077.121-.178.231-.253.355a1.3,1.3,0,0,1-.209.332c-.095.084-.085.028-.161.07a1.4,1.4,0,0,0-.174.126,2.477,2.477,0,0,1-.5.338c-.173.07-.461-.043-.639-.074a.92.92,0,0,1-.469-.156c-.148-.117-.19-.292-.316-.44-.039-.046-.091-.062-.127-.107s-.028-.115-.059-.178a1.29,1.29,0,0,0-.273-.3,2.22,2.22,0,0,0-.448-.294c-.094-.049-.2-.041-.279-.129s-.041-.054-.043-.141a.565.565,0,0,0-.032-.215c-.04-.129-.088-.256-.118-.394a1.353,1.353,0,0,1,.06-.486c.027-.15.053-.3.08-.449A1.7,1.7,0,0,1,.27,32.7c.067-.1.129-.2.193-.3a1.315,1.315,0,0,1,.378-.361c.057-.043.1-.1.162-.141.1-.079.233-.12.328-.207.112-.1.163-.261.272-.37a1.368,1.368,0,0,1,.369-.246,1.1,1.1,0,0,1,.509-.167c.083,0,.228.03.322.022s.136-.058.214-.069a1.4,1.4,0,0,1,.386.057,1.286,1.286,0,0,1,.764.5.767.767,0,0,1,.161.353c.037.186.125.38.147.569a4.625,4.625,0,0,1,.019.527,2,2,0,0,1-.032.234c-.018.122.01.235,0,.354-.032.339-.123.683-.183,1.018A1.247,1.247,0,0,1,4.032,35.218Z" transform="translate(2.033 0.58)"/>
                  <path class="cls-5" d="M7.721,34.227a1.013,1.013,0,0,1-.088.366c-.077.12-.178.231-.253.354a1.325,1.325,0,0,1-.209.333c-.1.084-.085.028-.162.07a1.46,1.46,0,0,0-.173.125,2.524,2.524,0,0,1-.5.339c-.173.07-.461-.043-.639-.075a.916.916,0,0,1-.469-.155c-.148-.118-.19-.292-.316-.44-.039-.046-.091-.062-.127-.108s-.028-.114-.059-.178a1.31,1.31,0,0,0-.273-.3A2.238,2.238,0,0,0,4,34.261c-.093-.049-.2-.041-.278-.129s-.041-.055-.043-.141a.563.563,0,0,0-.032-.215c-.04-.129-.088-.256-.118-.394a1.359,1.359,0,0,1,.06-.487c.026-.15.053-.3.079-.449A1.71,1.71,0,0,1,3.96,31.7c.067-.1.129-.2.192-.3a1.331,1.331,0,0,1,.379-.361c.057-.043.105-.1.162-.142.1-.078.232-.119.327-.206.113-.1.164-.261.273-.37a1.345,1.345,0,0,1,.369-.246,1.109,1.109,0,0,1,.508-.168,3,3,0,0,0,.323.022c.082-.007.136-.058.214-.069a1.437,1.437,0,0,1,.386.057,1.288,1.288,0,0,1,.764.5.758.758,0,0,1,.161.353c.037.185.125.379.147.569a4.607,4.607,0,0,1,.019.526,1.821,1.821,0,0,1-.033.235c-.017.121.011.234,0,.354-.032.338-.124.683-.183,1.018A1.244,1.244,0,0,1,7.721,34.227Z" transform="translate(2.033 0.58)"/>
                  <path class="cls-5" d="M7.077,31.777a1,1,0,0,1-.088.366c-.077.121-.178.231-.253.355a1.325,1.325,0,0,1-.209.333c-.095.084-.085.027-.161.069a1.513,1.513,0,0,0-.174.126,2.524,2.524,0,0,1-.5.339c-.173.069-.461-.044-.639-.075a.916.916,0,0,1-.469-.155c-.148-.118-.19-.292-.316-.441-.039-.045-.091-.062-.127-.107s-.028-.114-.059-.178a1.31,1.31,0,0,0-.273-.3,2.216,2.216,0,0,0-.448-.293c-.094-.049-.2-.041-.279-.129s-.041-.055-.043-.142a.568.568,0,0,0-.032-.215c-.04-.129-.088-.256-.118-.393a1.356,1.356,0,0,1,.06-.487c.027-.15.053-.3.079-.449a1.7,1.7,0,0,1,.289-.742c.067-.1.129-.2.192-.3a1.3,1.3,0,0,1,.379-.361c.057-.044.1-.1.162-.142.1-.078.232-.119.327-.207.113-.1.164-.261.273-.369a1.345,1.345,0,0,1,.369-.246,1.1,1.1,0,0,1,.508-.168c.084,0,.229.03.323.022s.136-.058.214-.069a1.4,1.4,0,0,1,.386.057,1.286,1.286,0,0,1,.764.5.766.766,0,0,1,.161.354c.037.185.125.379.147.569a4.6,4.6,0,0,1,.019.526,2.013,2.013,0,0,1-.032.235c-.018.121.01.234,0,.353-.032.339-.123.683-.183,1.019A1.239,1.239,0,0,1,7.077,31.777Z" transform="translate(2.033 0.58)"/>
                  <path class="cls-5" d="M5.112,29.106a1.013,1.013,0,0,1-.088.366c-.077.12-.178.231-.253.354a1.325,1.325,0,0,1-.209.333c-.1.084-.085.028-.162.07a1.46,1.46,0,0,0-.173.125,2.524,2.524,0,0,1-.5.339c-.173.07-.461-.043-.639-.075a.916.916,0,0,1-.469-.155c-.148-.118-.19-.292-.316-.44-.04-.046-.091-.062-.127-.108s-.028-.114-.059-.177a1.294,1.294,0,0,0-.273-.3,2.238,2.238,0,0,0-.449-.293c-.094-.049-.2-.041-.278-.129s-.041-.055-.043-.141a.563.563,0,0,0-.032-.215C1,28.526.953,28.4.923,28.261a1.337,1.337,0,0,1,.06-.487c.026-.15.053-.3.079-.449a1.71,1.71,0,0,1,.289-.742c.067-.1.129-.2.192-.3a1.331,1.331,0,0,1,.379-.361c.057-.043.105-.1.162-.142.1-.078.232-.119.327-.206.113-.1.164-.261.273-.37a1.345,1.345,0,0,1,.369-.246,1.109,1.109,0,0,1,.508-.168,2.981,2.981,0,0,0,.323.022c.082-.007.136-.058.214-.069a1.478,1.478,0,0,1,.386.057,1.288,1.288,0,0,1,.764.5.758.758,0,0,1,.161.353c.037.185.125.379.147.569a4.4,4.4,0,0,1,.018.526,1.661,1.661,0,0,1-.032.235c-.017.121.011.234,0,.354-.032.338-.124.683-.183,1.018A1.244,1.244,0,0,1,5.112,29.106Z" transform="translate(2.033 0.58)"/>
                  <path class="cls-1" d="M8.8,28.114a1,1,0,0,1-.089.366c-.076.121-.177.231-.252.355a1.3,1.3,0,0,1-.209.332c-.1.084-.085.028-.162.07a1.4,1.4,0,0,0-.173.126,2.477,2.477,0,0,1-.5.338c-.173.07-.462-.043-.64-.074a.9.9,0,0,1-.468-.156c-.148-.117-.19-.291-.316-.44-.04-.045-.091-.062-.127-.107s-.029-.114-.06-.178a1.283,1.283,0,0,0-.272-.3,2.242,2.242,0,0,0-.449-.294c-.094-.048-.2-.041-.278-.128s-.041-.055-.043-.142a.568.568,0,0,0-.032-.215c-.04-.129-.089-.256-.119-.393a1.357,1.357,0,0,1,.061-.487c.026-.15.053-.3.079-.449a1.7,1.7,0,0,1,.289-.742c.067-.1.129-.2.192-.3a1.314,1.314,0,0,1,.379-.36c.057-.044.1-.1.162-.142.1-.078.232-.119.327-.207.113-.1.164-.261.272-.369a1.327,1.327,0,0,1,.37-.246,1.1,1.1,0,0,1,.508-.168c.083,0,.229.03.323.022s.136-.058.214-.069a1.4,1.4,0,0,1,.385.057,1.288,1.288,0,0,1,.765.5.766.766,0,0,1,.161.354c.037.185.125.379.146.569a4.184,4.184,0,0,1,.019.526,1.661,1.661,0,0,1-.032.235c-.017.121.01.234,0,.353-.032.339-.124.683-.183,1.019A1.239,1.239,0,0,1,8.8,28.114Z" transform="translate(2.033 0.58)"/>
                  <path class="cls-6" d="M2.775,36.4C.208,32.379,2.12,27.939,4.732,24.461c3.658,1.8,7,5.867,6.89,9.557-.067,2.2-2.555,5.558-3.26,5.694C7.625,39.854,4.361,38.883,2.775,36.4Z" transform="translate(2.033 0.58)"/>
                </g>
              </g>
            </g>
            <path class="cls-1" d="M2.775,36.4C.208,32.379,2.12,27.939,4.732,24.461c3.658,1.8,7,5.867,6.89,9.557-.067,2.2-2.555,5.558-3.26,5.694C7.625,39.854,4.361,38.883,2.775,36.4Z" transform="translate(2.033 0.58)"/>
          </g>
          <g>
            <g class="cls-12">
              <g class="cls-8">
                <g>
                  <path class="cls-5" d="M25.263,34.969a1.011,1.011,0,0,1,.376,0c.135.046.266.119.4.163a1.288,1.288,0,0,1,.372.126c.1.073.047.076.105.141a1.458,1.458,0,0,0,.163.139,2.477,2.477,0,0,1,.445.409c.109.152.066.459.076.639a.909.909,0,0,1-.042.492c-.08.171-.24.252-.354.41-.036.049-.04.1-.076.148s-.1.054-.159.1a1.282,1.282,0,0,0-.232.336,2.246,2.246,0,0,0-.181.5c-.026.1.007.207-.061.3s-.044.053-.128.075a.546.546,0,0,0-.2.081c-.116.069-.229.145-.356.207a1.363,1.363,0,0,1-.487.054l-.455.027a1.7,1.7,0,0,1-.789-.108c-.111-.042-.227-.079-.339-.117a1.319,1.319,0,0,1-.439-.285c-.055-.045-.12-.079-.175-.124-.1-.081-.17-.2-.277-.271-.128-.085-.292-.1-.423-.178a1.358,1.358,0,0,1-.325-.3,1.091,1.091,0,0,1-.281-.455c-.018-.082-.024-.23-.054-.319s-.088-.119-.117-.192a1.425,1.425,0,0,1-.034-.388,1.291,1.291,0,0,1,.312-.861.761.761,0,0,1,.306-.238c.172-.079.34-.21.52-.275a4.18,4.18,0,0,1,.507-.141,1.729,1.729,0,0,1,.236-.023c.122-.012.225-.065.344-.081.337-.047.693-.039,1.033-.059A1.245,1.245,0,0,1,25.263,34.969Z" transform="translate(2.033 0.58)"/>
                  <path class="cls-1" d="M25.2,36.539a1,1,0,0,1,.377,0c.135.047.266.119.4.163a1.357,1.357,0,0,1,.373.126c.1.074.046.076.105.141a1.542,1.542,0,0,0,.162.14,2.516,2.516,0,0,1,.446.408c.108.152.065.459.076.64a.92.92,0,0,1-.042.492c-.08.171-.24.252-.355.409-.035.049-.039.1-.075.149s-.1.054-.159.1a1.293,1.293,0,0,0-.232.335,2.208,2.208,0,0,0-.182.5c-.025.1.008.207-.06.3s-.044.052-.128.075a.561.561,0,0,0-.2.08c-.117.069-.229.146-.356.207a1.363,1.363,0,0,1-.487.054l-.455.028a1.711,1.711,0,0,1-.789-.109c-.111-.042-.227-.078-.339-.117a1.316,1.316,0,0,1-.439-.284c-.055-.045-.12-.08-.175-.125-.1-.081-.17-.2-.277-.27-.128-.086-.292-.1-.423-.179a1.354,1.354,0,0,1-.325-.3,1.113,1.113,0,0,1-.282-.456,3.071,3.071,0,0,0-.053-.319c-.026-.077-.088-.118-.117-.192a1.421,1.421,0,0,1-.034-.388,1.284,1.284,0,0,1,.312-.86.755.755,0,0,1,.306-.239c.172-.079.34-.21.52-.275a4.518,4.518,0,0,1,.507-.141,1.9,1.9,0,0,1,.236-.023c.122-.011.225-.064.344-.081.337-.047.693-.038,1.033-.058A1.242,1.242,0,0,1,25.2,36.539Z" transform="translate(2.033 0.58)"/>
                  <path class="cls-5" d="M23.057,39.071a1.016,1.016,0,0,1,.377,0c.135.047.266.119.4.163a1.357,1.357,0,0,1,.373.126c.1.074.046.076.105.141a1.542,1.542,0,0,0,.162.14,2.516,2.516,0,0,1,.446.408c.108.152.065.459.076.64a.92.92,0,0,1-.042.492c-.08.171-.24.252-.355.409-.035.049-.039.1-.075.149s-.1.054-.159.1a1.293,1.293,0,0,0-.232.335,2.208,2.208,0,0,0-.182.505c-.025.1.008.207-.06.3s-.044.052-.128.075a.561.561,0,0,0-.2.08c-.117.069-.229.146-.356.207a1.363,1.363,0,0,1-.487.054l-.455.028a1.711,1.711,0,0,1-.789-.109c-.111-.042-.227-.078-.339-.117a1.316,1.316,0,0,1-.439-.284c-.055-.045-.12-.08-.175-.125-.1-.081-.17-.2-.277-.27-.128-.086-.292-.1-.423-.179a1.354,1.354,0,0,1-.325-.3,1.113,1.113,0,0,1-.282-.456,3.071,3.071,0,0,0-.053-.319c-.026-.077-.088-.118-.117-.192a1.421,1.421,0,0,1-.034-.388,1.284,1.284,0,0,1,.312-.86.755.755,0,0,1,.306-.239c.172-.079.34-.21.52-.275a4.518,4.518,0,0,1,.507-.141,1.9,1.9,0,0,1,.236-.023c.122-.011.225-.064.344-.081.337-.047.693-.038,1.033-.058A1.242,1.242,0,0,1,23.057,39.071Z" transform="translate(2.033 0.58)"/>
                  <path class="cls-5" d="M21.236,35.712a1.033,1.033,0,0,1,.376,0c.136.047.266.119.4.164a1.316,1.316,0,0,1,.372.125c.1.074.047.077.1.142a1.458,1.458,0,0,0,.163.139,2.518,2.518,0,0,1,.446.409c.108.152.065.459.076.639a.909.909,0,0,1-.043.492c-.079.171-.239.252-.354.41-.036.049-.039.1-.075.148s-.105.054-.159.1a1.285,1.285,0,0,0-.233.336,2.246,2.246,0,0,0-.181.5c-.026.1.007.207-.061.3s-.043.053-.127.075a.543.543,0,0,0-.2.081c-.116.069-.228.145-.355.207a1.371,1.371,0,0,1-.488.054l-.455.027a1.7,1.7,0,0,1-.789-.108c-.111-.042-.226-.079-.339-.117a1.3,1.3,0,0,1-.438-.285c-.056-.045-.12-.079-.176-.124-.1-.082-.17-.2-.277-.271-.127-.085-.292-.1-.423-.179a1.353,1.353,0,0,1-.325-.3,1.1,1.1,0,0,1-.281-.455,3,3,0,0,0-.054-.319c-.026-.078-.088-.119-.116-.193a1.344,1.344,0,0,1-.034-.388,1.28,1.28,0,0,1,.312-.86.748.748,0,0,1,.306-.238c.171-.079.339-.21.519-.275a4.2,4.2,0,0,1,.508-.141,1.872,1.872,0,0,1,.235-.024c.122-.011.226-.064.345-.08.336-.048.693-.039,1.032-.059A1.245,1.245,0,0,1,21.236,35.712Z" transform="translate(2.033 0.58)"/>
                  <path class="cls-1" d="M19,36.907a1.016,1.016,0,0,1,.377,0c.135.047.266.119.4.163a1.34,1.34,0,0,1,.372.126c.1.074.047.076.106.141a1.346,1.346,0,0,0,.162.139,2.56,2.56,0,0,1,.446.409c.108.152.065.459.076.639a.923.923,0,0,1-.042.493c-.08.17-.24.252-.355.409-.035.049-.039.1-.075.148s-.105.055-.159.1a1.263,1.263,0,0,0-.233.335,2.254,2.254,0,0,0-.181.5c-.026.1.007.206-.061.3s-.043.052-.127.074a.587.587,0,0,0-.2.081c-.116.069-.228.146-.355.207a1.369,1.369,0,0,1-.488.054l-.455.027a1.7,1.7,0,0,1-.789-.108c-.111-.042-.226-.078-.338-.117a1.306,1.306,0,0,1-.439-.284c-.056-.046-.12-.08-.176-.125-.1-.081-.17-.2-.277-.27-.127-.086-.292-.1-.422-.179a1.377,1.377,0,0,1-.326-.3,1.121,1.121,0,0,1-.281-.456,3.028,3.028,0,0,0-.053-.319c-.027-.078-.088-.118-.117-.192a1.421,1.421,0,0,1-.034-.388,1.283,1.283,0,0,1,.312-.861.761.761,0,0,1,.306-.238c.172-.079.34-.21.519-.275a4.2,4.2,0,0,1,.508-.141,1.867,1.867,0,0,1,.236-.023c.122-.012.225-.064.344-.081.337-.047.693-.038,1.033-.059A1.256,1.256,0,0,1,19,36.907Z" transform="translate(2.033 0.58)"/>
                  <path class="cls-1" d="M16.861,39.439a1.016,1.016,0,0,1,.377,0c.135.047.266.119.4.163a1.34,1.34,0,0,1,.372.126c.1.074.047.076.106.141a1.346,1.346,0,0,0,.162.139,2.56,2.56,0,0,1,.446.409c.108.152.065.459.076.64a.92.92,0,0,1-.042.492c-.08.17-.24.252-.355.409-.035.049-.039.1-.075.148s-.105.055-.159.1a1.263,1.263,0,0,0-.233.335,2.254,2.254,0,0,0-.181.505c-.026.1.007.206-.061.3s-.043.052-.127.074a.575.575,0,0,0-.2.081c-.117.069-.229.146-.356.207a1.369,1.369,0,0,1-.488.054l-.455.027a1.7,1.7,0,0,1-.789-.108c-.111-.042-.226-.078-.338-.117a1.306,1.306,0,0,1-.439-.284c-.056-.046-.12-.08-.176-.125-.1-.081-.17-.2-.277-.27-.127-.086-.292-.1-.423-.179a1.392,1.392,0,0,1-.325-.3,1.111,1.111,0,0,1-.281-.456,3.028,3.028,0,0,0-.053-.319c-.027-.078-.088-.118-.117-.192a1.421,1.421,0,0,1-.034-.388,1.283,1.283,0,0,1,.312-.861.761.761,0,0,1,.306-.238c.172-.079.34-.21.519-.275a4.2,4.2,0,0,1,.508-.141,1.867,1.867,0,0,1,.236-.023c.122-.012.225-.064.344-.081.337-.047.693-.038,1.033-.059A1.256,1.256,0,0,1,16.861,39.439Z" transform="translate(2.033 0.58)"/>
                  <path class="cls-5" d="M15.04,36.081a1.033,1.033,0,0,1,.376,0c.135.047.266.119.4.164a1.316,1.316,0,0,1,.372.125c.1.074.047.076.105.142a1.571,1.571,0,0,0,.163.139,2.509,2.509,0,0,1,.445.408c.109.153.066.46.076.64a.91.91,0,0,1-.042.492c-.08.171-.24.252-.354.41-.036.048-.04.1-.076.148s-.1.054-.159.1a1.282,1.282,0,0,0-.232.336,2.246,2.246,0,0,0-.181.5c-.026.1.007.207-.061.3s-.044.052-.128.075a.546.546,0,0,0-.2.081c-.116.069-.229.145-.356.206a1.341,1.341,0,0,1-.487.055l-.455.027a1.7,1.7,0,0,1-.789-.109c-.111-.042-.227-.078-.339-.116a1.335,1.335,0,0,1-.439-.285c-.055-.045-.12-.079-.175-.124-.1-.082-.17-.2-.277-.271-.128-.086-.292-.1-.423-.179a1.354,1.354,0,0,1-.325-.3,1.1,1.1,0,0,1-.281-.455c-.018-.082-.024-.23-.054-.319s-.088-.119-.117-.193A1.421,1.421,0,0,1,11,37.693a1.289,1.289,0,0,1,.312-.86.764.764,0,0,1,.306-.239c.172-.079.34-.21.52-.275a4.366,4.366,0,0,1,.507-.14,1.732,1.732,0,0,1,.236-.024c.122-.011.225-.064.344-.081.337-.047.693-.038,1.033-.058A1.245,1.245,0,0,1,15.04,36.081Z" transform="translate(2.033 0.58)"/>
                  <path class="cls-1" d="M12.88,38.162a1.038,1.038,0,0,1-.377,0c-.135-.047-.266-.119-.4-.164a1.306,1.306,0,0,1-.372-.125c-.1-.074-.047-.077-.106-.142a1.443,1.443,0,0,0-.162-.139,2.484,2.484,0,0,1-.446-.409c-.108-.152-.065-.459-.076-.639a.919.919,0,0,1,.042-.492c.08-.171.24-.252.355-.41.035-.049.039-.1.075-.148s.1-.054.159-.1a1.258,1.258,0,0,0,.232-.336,2.2,2.2,0,0,0,.182-.5c.025-.1-.007-.207.06-.3s.044-.053.128-.075a.546.546,0,0,0,.2-.081c.117-.069.229-.145.356-.207a1.363,1.363,0,0,1,.487-.054l.456-.027a1.7,1.7,0,0,1,.789.108c.111.042.226.079.338.117a1.335,1.335,0,0,1,.439.285c.056.045.12.079.175.124.1.082.17.2.278.271.127.085.291.1.422.179a1.334,1.334,0,0,1,.325.3,1.11,1.11,0,0,1,.282.455,2.986,2.986,0,0,0,.053.319c.027.078.088.119.117.193a1.418,1.418,0,0,1,.034.388,1.28,1.28,0,0,1-.312.86.772.772,0,0,1-.306.239c-.172.078-.34.209-.52.275a4.312,4.312,0,0,1-.507.14,1.732,1.732,0,0,1-.236.024c-.122.011-.225.064-.344.08-.337.048-.693.039-1.033.059A1.242,1.242,0,0,1,12.88,38.162Z" transform="translate(2.033 0.58)"/>
                  <path class="cls-1" d="M15.022,35.63a1.038,1.038,0,0,1-.377,0c-.135-.047-.266-.119-.4-.164a1.306,1.306,0,0,1-.372-.125c-.1-.074-.047-.077-.106-.142a1.443,1.443,0,0,0-.162-.139,2.484,2.484,0,0,1-.446-.409c-.108-.152-.065-.459-.076-.639a.919.919,0,0,1,.042-.492c.08-.171.24-.252.355-.41.035-.049.039-.1.075-.148s.1-.054.159-.1a1.258,1.258,0,0,0,.232-.336,2.2,2.2,0,0,0,.182-.5c.025-.1-.008-.207.06-.3s.044-.053.128-.075a.546.546,0,0,0,.2-.081c.117-.069.229-.145.356-.207a1.363,1.363,0,0,1,.487-.054l.456-.027a1.7,1.7,0,0,1,.789.108c.111.042.226.079.338.117a1.335,1.335,0,0,1,.439.285c.056.045.12.079.175.124.1.082.17.2.278.271.127.085.291.1.422.179a1.334,1.334,0,0,1,.325.3,1.1,1.1,0,0,1,.282.455,2.986,2.986,0,0,0,.053.319c.027.078.088.119.117.193a1.418,1.418,0,0,1,.034.388,1.28,1.28,0,0,1-.312.86.772.772,0,0,1-.306.239c-.172.078-.34.209-.52.275a4.312,4.312,0,0,1-.507.14,1.732,1.732,0,0,1-.236.024c-.122.011-.225.064-.344.08-.337.048-.693.039-1.033.059A1.242,1.242,0,0,1,15.022,35.63Z" transform="translate(2.033 0.58)"/>
                  <path class="cls-5" d="M16.843,38.989a1.011,1.011,0,0,1-.376,0c-.135-.047-.266-.119-.4-.163a1.351,1.351,0,0,1-.372-.126c-.1-.074-.047-.076-.105-.141a1.36,1.36,0,0,0-.163-.139,2.6,2.6,0,0,1-.446-.409c-.108-.152-.065-.459-.076-.639a.923.923,0,0,1,.043-.493c.08-.17.24-.252.354-.409.036-.049.04-.1.076-.148s.1-.055.158-.1a1.263,1.263,0,0,0,.233-.335,2.254,2.254,0,0,0,.181-.5c.026-.1-.007-.206.061-.3s.044-.052.127-.074a.579.579,0,0,0,.2-.081c.116-.069.228-.146.355-.207a1.371,1.371,0,0,1,.488-.054l.455-.027a1.7,1.7,0,0,1,.789.108c.111.042.226.078.339.117a1.316,1.316,0,0,1,.439.284c.055.046.119.08.175.125.1.081.17.2.277.27.127.086.292.1.423.179a1.373,1.373,0,0,1,.325.3,1.1,1.1,0,0,1,.281.456,3.039,3.039,0,0,0,.054.319c.026.078.088.118.117.192a1.421,1.421,0,0,1,.034.388,1.293,1.293,0,0,1-.312.861.757.757,0,0,1-.307.238c-.171.079-.339.21-.519.275a4.231,4.231,0,0,1-.507.141,1.729,1.729,0,0,1-.236.023c-.122.012-.226.064-.345.081-.336.047-.692.038-1.032.059A1.259,1.259,0,0,1,16.843,38.989Z" transform="translate(2.033 0.58)"/>
                  <path class="cls-5" d="M19.076,37.793a1.038,1.038,0,0,1-.377,0c-.135-.047-.265-.119-.4-.163a1.34,1.34,0,0,1-.372-.126c-.1-.074-.047-.076-.106-.141a1.446,1.446,0,0,0-.162-.14,2.516,2.516,0,0,1-.446-.408c-.108-.152-.065-.459-.076-.64a.919.919,0,0,1,.042-.492c.08-.171.24-.252.355-.41.035-.048.039-.1.075-.148s.1-.054.159-.1A1.285,1.285,0,0,0,18,34.689a2.228,2.228,0,0,0,.181-.5c.026-.1-.007-.207.061-.3s.043-.052.127-.075a.55.55,0,0,0,.2-.081c.116-.068.228-.145.355-.206a1.369,1.369,0,0,1,.488-.055l.455-.027a1.715,1.715,0,0,1,.789.109c.111.042.226.078.338.117a1.306,1.306,0,0,1,.439.284c.056.045.12.079.176.125.1.081.17.2.277.27.127.086.292.1.423.179a1.373,1.373,0,0,1,.325.3,1.111,1.111,0,0,1,.281.456,3.011,3.011,0,0,0,.053.318c.027.078.088.119.117.193a1.421,1.421,0,0,1,.034.388,1.279,1.279,0,0,1-.312.86.755.755,0,0,1-.306.239c-.171.079-.34.21-.519.275a4.382,4.382,0,0,1-.508.14,1.7,1.7,0,0,1-.235.024c-.123.011-.226.064-.345.081-.337.047-.693.038-1.033.058A1.242,1.242,0,0,1,19.076,37.793Z" transform="translate(2.033 0.58)"/>
                  <path class="cls-5" d="M21.218,35.261a1.038,1.038,0,0,1-.377,0c-.135-.047-.265-.119-.4-.163a1.34,1.34,0,0,1-.372-.126c-.1-.074-.047-.076-.106-.141a1.446,1.446,0,0,0-.162-.14,2.516,2.516,0,0,1-.446-.408c-.108-.152-.065-.459-.076-.64a.919.919,0,0,1,.042-.492c.08-.171.24-.252.355-.41.035-.048.039-.1.075-.148s.105-.054.159-.1a1.285,1.285,0,0,0,.233-.336,2.228,2.228,0,0,0,.181-.5c.026-.1-.007-.207.061-.3s.043-.052.127-.075a.55.55,0,0,0,.2-.081c.116-.068.228-.145.355-.206a1.369,1.369,0,0,1,.488-.055l.455-.027a1.7,1.7,0,0,1,.789.109c.111.042.226.078.338.117a1.306,1.306,0,0,1,.439.284c.056.045.12.079.176.125.1.081.17.2.277.27.127.086.292.1.423.179a1.373,1.373,0,0,1,.325.3,1.111,1.111,0,0,1,.281.456,3.011,3.011,0,0,0,.053.318c.027.078.088.119.117.193a1.421,1.421,0,0,1,.034.388,1.279,1.279,0,0,1-.312.86.764.764,0,0,1-.306.239c-.171.079-.34.21-.519.275a4.382,4.382,0,0,1-.508.14,1.7,1.7,0,0,1-.235.024c-.123.011-.226.064-.345.081-.337.047-.693.038-1.033.058A1.242,1.242,0,0,1,21.218,35.261Z" transform="translate(2.033 0.58)"/>
                  <path class="cls-1" d="M23.039,38.62a1.011,1.011,0,0,1-.376,0c-.135-.046-.266-.119-.4-.163a1.284,1.284,0,0,1-.373-.126c-.1-.073-.047-.076-.105-.141a1.538,1.538,0,0,0-.162-.139,2.487,2.487,0,0,1-.446-.409c-.108-.152-.066-.459-.076-.639a.909.909,0,0,1,.042-.492c.08-.171.24-.252.354-.41.036-.049.04-.1.076-.148s.1-.054.159-.1a1.282,1.282,0,0,0,.232-.336,2.215,2.215,0,0,0,.181-.5c.026-.1-.007-.207.061-.3s.044-.053.128-.075a.546.546,0,0,0,.2-.081c.117-.069.229-.145.356-.207a1.363,1.363,0,0,1,.487-.054l.455-.027a1.7,1.7,0,0,1,.789.108c.111.042.227.079.339.117a1.319,1.319,0,0,1,.439.285c.055.045.12.079.175.124.1.081.17.2.277.271.128.085.292.1.423.178a1.338,1.338,0,0,1,.325.3,1.1,1.1,0,0,1,.282.455,3.028,3.028,0,0,0,.053.319c.026.078.088.119.117.192a1.425,1.425,0,0,1,.034.388,1.291,1.291,0,0,1-.312.861.761.761,0,0,1-.306.238c-.172.079-.34.21-.52.275a4.13,4.13,0,0,1-.507.141,1.729,1.729,0,0,1-.236.023c-.122.012-.225.065-.344.081-.337.047-.693.039-1.033.059A1.245,1.245,0,0,1,23.039,38.62Z" transform="translate(2.033 0.58)"/>
                  <path class="cls-6" d="M13.58,34.683c3.314-3.432,8.077-2.6,12.068-.871-.9,3.976-4.081,8.175-7.695,8.922-2.153.445-6-1.194-6.3-1.848C11.347,40.2,11.534,36.8,13.58,34.683Z" transform="translate(2.033 0.58)"/>
                </g>
              </g>
            </g>
            <path class="cls-1" d="M13.58,34.683c3.314-3.432,8.077-2.6,12.068-.871-.9,3.976-4.081,8.175-7.695,8.922-2.153.445-6-1.194-6.3-1.848C11.347,40.2,11.534,36.8,13.58,34.683Z" transform="translate(2.033 0.58)"/>
          </g>
        </g>
        <path class="cls-1" d="M7.874,42.877s-.009-.162-.018-.445-.019-.685-.024-1.166l-.01-.777,0-.865,0-.924c0-.314,0-.633-.01-.952s-.011-.636-.017-.95l-.014-.465-.017-.453-.021-.438-.027-.419c-.02-.271-.041-.528-.065-.765s-.057-.453-.085-.645-.061-.358-.095-.493-.058-.244-.079-.317l-.029-.113.06.1a2.789,2.789,0,0,1,.157.291,4.822,4.822,0,0,1,.2.476l.1.3c.034.107.062.22.1.339s.059.242.091.371.052.263.08.4.046.28.07.426.039.294.058.445c.069.606.106,1.254.115,1.9s-.012,1.294-.052,1.9-.1,1.167-.168,1.647c-.03.24-.067.46-.1.654s-.066.363-.093.5-.054.248-.07.322Z" transform="translate(2.033 0.58)"/>
        <path class="cls-1" d="M17.2,37.573s-.1.094-.27.25-.426.374-.735.626-.676.536-1.076.83c-.2.148-.407.3-.621.447s-.431.3-.65.448-.44.293-.66.433-.437.276-.648.406c-.424.259-.826.491-1.176.682s-.647.341-.858.442-.334.155-.334.155.1-.095.27-.25.426-.375.734-.627.676-.536,1.076-.83c.2-.147.408-.3.621-.446s.432-.3.651-.448.441-.293.66-.432.437-.277.649-.406c.424-.259.826-.491,1.175-.682s.647-.342.858-.443S17.2,37.573,17.2,37.573Z" transform="translate(2.033 0.58)"/>
      </g>
    </g>
  </g>
</svg>
