<svg xmlns="http://www.w3.org/2000/svg" width="81.737" height="16.185" viewBox="0 0 81.737 16.185">
  <defs>
    <style>
      .cls-1 {
        fill: #333;
      }

      .cls-2 {
        fill: none;
        stroke: #565656;
        stroke-miterlimit: 10;
        stroke-width: 0.75px;
      }
    </style>
  </defs>
  <title>Asset 5</title>
  <g id="Layer_2" data-name="Layer 2">
    <g id="レイヤー_1" data-name="レイヤー 1">
      <g>
        <path class="cls-1" d="M30.543,11.193c.013.26.091.429.286.468a17.352,17.352,0,0,0,2.743.065c.495-.052.781-.338,1.183-1.456.156-.481.521-.442.494.039a5.636,5.636,0,0,1-.442,1.742.485.485,0,0,1-.454.325c-.365.065-3.836-.026-4.382-.026-.194,0-1.43.026-1.456.026-.52,0-.52-.416-.039-.468.806-.1.885-.182.923-.65.026-.351.026-.6.026-1.235V5.72c0-.78-.013-1.183-.026-1.352-.026-.312-.1-.429-.91-.546-.494-.065-.494-.468.026-.468.39,0,.819.026,1.4.026.728,0,1.3-.039,1.6-.039.469,0,.469.429.013.481-.845.1-.961.234-.988.572s-.026.546-.026,1.352V9.932C30.517,10.608,30.53,10.842,30.543,11.193Z"/>
        <path class="cls-1" d="M39.774,8.437c-.052-1.287-.832-1.651-1.469-1.651a.869.869,0,0,0-.885.442c-.13.247-.194.611-.311.9s-.4.351-.573-.039a1.323,1.323,0,0,1-.13-.585.449.449,0,0,1,.182-.39A5.26,5.26,0,0,1,38.851,6.1C40.4,6.1,40.7,7.371,40.7,8.216s-.039,2.86-.039,3.016a.558.558,0,0,0,.039.26c.118.208.5.195.742.195.272-.013.272.338,0,.494a2.325,2.325,0,0,1-1.236.312c-.416-.013-.467-.377-.494-1.027a3.569,3.569,0,0,1-2.222,1.079,1.479,1.479,0,0,1-1.392-1.612c0-1.2,1.7-1.859,3.173-1.859.13,0,.311.013.507.026Zm0,1.339c0-.078-.039-.078-.091-.091a4.827,4.827,0,0,0-1.028-.052c-.9.013-1.5.429-1.5,1.106a.9.9,0,0,0,1,.961,1.82,1.82,0,0,0,1.456-.753.545.545,0,0,0,.157-.469Z"/>
        <path class="cls-1" d="M43.335,7.865c0-.39-.065-.507-.663-.7a.21.21,0,0,1,.026-.4,4.545,4.545,0,0,0,1.039-.52.892.892,0,0,1,.339-.143c.117,0,.169.065.2.208a4.44,4.44,0,0,1,.065.91,9.493,9.493,0,0,1,1.079-.78A2.04,2.04,0,0,1,46.507,6.1c1.092,0,1.807.793,1.807,2.249v2.99c0,.416.078.468.65.572.4.065.391.468-.039.468s-.767-.026-1.209-.026c-.338,0-.845.026-1.092.026-.468,0-.468-.4-.065-.468.689-.129.728-.26.741-.676.013-.26.039-.559.039-1.82V8.541A1.388,1.388,0,0,0,45.87,6.955a2.093,2.093,0,0,0-1.469.793.439.439,0,0,0-.091.338V10.3a6.971,6.971,0,0,0,.039,1.04c.013.364.065.455.715.572.377.065.351.468-.065.468-.286,0-.715-.026-1.183-.026-.429,0-.793.026-1.131.026-.442,0-.429-.4-.039-.468.585-.117.624-.208.65-.585a9.04,9.04,0,0,0,.039-1.222Z"/>
        <path class="cls-1" d="M55.347,7.124a2.641,2.641,0,0,1-.715.1,2.946,2.946,0,0,1,.182.806A2.255,2.255,0,0,1,54.2,9.789a2.871,2.871,0,0,1-2.041.871h-.156a1.043,1.043,0,0,0-.324.546c0,.26.324.351.715.4.311.026.857.052,1.351.091,1.275.117,1.925.676,1.925,1.651A2.786,2.786,0,0,1,54.4,15.509a3.418,3.418,0,0,1-2.029.676c-1.755,0-2.535-1.117-2.535-1.949a.8.8,0,0,1,.2-.5A12.856,12.856,0,0,1,51.42,12.4a1.147,1.147,0,0,1-.766-.664.42.42,0,0,1-.027-.325c.183-.208.69-.637.923-.845a2.02,2.02,0,0,1-1.391-1.976,2.39,2.39,0,0,1,1.17-2.054A2.876,2.876,0,0,1,52.734,6.1a3.14,3.14,0,0,1,.9.143,3.688,3.688,0,0,0,1.274.286.954.954,0,0,0,.676-.364c.235-.221.391-.039.313.182a2.123,2.123,0,0,1-.313.585A.406.406,0,0,1,55.347,7.124Zm-3.458,5.382a8.69,8.69,0,0,0-.755.78,1.06,1.06,0,0,0-.3.742c0,.61.69,1.442,2.146,1.442A1.6,1.6,0,0,0,54.736,13.9c0-.715-.495-1.131-1.469-1.248-.416-.038-.7-.077-1.248-.13Zm1.963-4.03c0-1.04-.507-1.755-1.47-1.755-.87,0-1.234.572-1.234,1.573,0,.819.377,1.729,1.468,1.729C53.409,10.023,53.852,9.529,53.852,8.476Z"/>
        <path class="cls-1" d="M58.128,9.763a4.051,4.051,0,0,0,.078,1.014,1.149,1.149,0,0,0,1.2.871,1.965,1.965,0,0,0,1.559-.832c.053-.065.053-.143.053-.273V8.034a4.519,4.519,0,0,0-.027-.559c-.039-.325-.129-.429-.819-.559-.338-.052-.324-.455.078-.468A4.746,4.746,0,0,0,61.5,6.305c.222-.052.352-.1.4-.1a.184.184,0,0,1,.169.26,8.086,8.086,0,0,0-.079,1.352v2.405a3.141,3.141,0,0,0,.105,1.17c.143.2.26.2.688.156.235-.013.287.247.079.429a2.664,2.664,0,0,1-1.444.546c-.324,0-.363-.532-.389-1.183a3.494,3.494,0,0,1-2.146,1.2,1.618,1.618,0,0,1-1.222-.481,2.207,2.207,0,0,1-.519-1.651V8.255c0-.234,0-.507-.027-.793-.012-.169-.09-.338-.572-.481-.3-.091-.233-.4.066-.455a4.762,4.762,0,0,0,1.1-.286,2.018,2.018,0,0,1,.352-.13c.117,0,.22.1.181.286a5.918,5.918,0,0,0-.117,1.482Z"/>
        <path class="cls-1" d="M67.515,8.437c-.052-1.287-.832-1.651-1.469-1.651a.869.869,0,0,0-.885.442c-.13.247-.194.611-.311.9s-.4.351-.572-.039a1.323,1.323,0,0,1-.13-.585.451.451,0,0,1,.181-.39A5.26,5.26,0,0,1,66.592,6.1c1.547,0,1.846,1.274,1.846,2.119s-.039,2.86-.039,3.016a.544.544,0,0,0,.039.26c.117.208.494.195.741.195.272-.013.272.338,0,.494a2.324,2.324,0,0,1-1.235.312c-.416-.013-.468-.377-.5-1.027a3.569,3.569,0,0,1-2.222,1.079,1.479,1.479,0,0,1-1.392-1.612c0-1.2,1.7-1.859,3.173-1.859.13,0,.312.013.507.026Zm0,1.339c0-.078-.039-.078-.091-.091A4.816,4.816,0,0,0,66.4,9.633c-.9.013-1.5.429-1.5,1.106a.9.9,0,0,0,1,.961,1.822,1.822,0,0,0,1.456-.753.547.547,0,0,0,.156-.469Z"/>
        <path class="cls-1" d="M75.484,7.124a2.647,2.647,0,0,1-.715.1,2.942,2.942,0,0,1,.181.806,2.254,2.254,0,0,1-.611,1.755,2.872,2.872,0,0,1-2.041.871h-.156a1.036,1.036,0,0,0-.324.546c0,.26.324.351.714.4.312.026.858.052,1.352.091,1.274.117,1.925.676,1.925,1.651a2.784,2.784,0,0,1-1.275,2.158,3.417,3.417,0,0,1-2.028.676c-1.755,0-2.535-1.117-2.535-1.949a.8.8,0,0,1,.195-.5A12.856,12.856,0,0,1,71.557,12.4a1.152,1.152,0,0,1-.767-.664.419.419,0,0,1-.026-.325c.182-.208.689-.637.923-.845A2.02,2.02,0,0,1,70.3,8.593a2.387,2.387,0,0,1,1.17-2.054,2.876,2.876,0,0,1,1.4-.442,3.147,3.147,0,0,1,.9.143,3.683,3.683,0,0,0,1.274.286.954.954,0,0,0,.676-.364c.234-.221.391-.039.312.182a2.1,2.1,0,0,1-.312.585A.406.406,0,0,1,75.484,7.124Zm-3.458,5.382a8.69,8.69,0,0,0-.755.78,1.06,1.06,0,0,0-.3.742c0,.61.689,1.442,2.145,1.442A1.6,1.6,0,0,0,74.872,13.9c0-.715-.494-1.131-1.468-1.248-.417-.038-.7-.077-1.249-.13Zm1.962-4.03c0-1.04-.506-1.755-1.469-1.755-.87,0-1.235.572-1.235,1.573,0,.819.377,1.729,1.469,1.729C73.546,10.023,73.988,9.529,73.988,8.476Z"/>
        <path class="cls-1" d="M79.735,11.648a2.519,2.519,0,0,0,1.456-.468c.4-.247.519.117.194.442a3.391,3.391,0,0,1-2.274.9c-1.509,0-2.562-1.313-2.562-3.081a3.419,3.419,0,0,1,1.118-2.6,2.847,2.847,0,0,1,1.82-.741,2.054,2.054,0,0,1,2.106,2.054c.078.039.144.078.144.2,0,.234-.26.4-.495.468a12.931,12.931,0,0,1-3.666.286C77.6,10.829,78.473,11.648,79.735,11.648ZM77.694,8.476a4.4,4.4,0,0,0,.48.026,15.63,15.63,0,0,0,2.366-.117.142.142,0,0,0,.066-.143,1.515,1.515,0,0,0-1.548-1.5c-.689,0-1.3.468-1.443,1.612C77.615,8.437,77.628,8.463,77.694,8.476Z"/>
      </g>
      <g>
        <ellipse class="cls-2" cx="10.551" cy="7.28" rx="10.176" ry="6.905"/>
        <path class="cls-2" d="M10.394,13.664c-4.178-1.036-7.118-3.5-7.118-6.384S6.2,1.943,10.369.9"/>
        <path class="cls-2" d="M10.9,13.578c4.178-1.036,7.118-3.5,7.118-6.384S15.091,1.857,10.926.817"/>
        <path class="cls-2" d="M10.5,13.654A8.854,8.854,0,0,1,7.881,7.326,8.847,8.847,0,0,1,10.593.9"/>
        <path class="cls-2" d="M10.8.9a8.855,8.855,0,0,1,2.614,6.329,8.841,8.841,0,0,1-2.712,6.422"/>
        <line class="cls-2" x1="0.375" y1="7.28" x2="20.728" y2="7.28"/>
      </g>
    </g>
  </g>
</svg>
